VIF Factor,Features
1.0004316003207223,PDCSAP_FLUX__has_duplicate_max
1.0036712488479194,PDCSAP_FLUX__has_duplicate_min
0.002765781846771993,PDCSAP_FLUX__has_duplicate
51.626670174885284,PDCSAP_FLUX__sum_values
14.006825373420046,PDCSAP_FLUX__abs_energy
26.57041938840971,PDCSAP_FLUX__mean_abs_change
1.4334779369003976,PDCSAP_FLUX__mean_change
1.1540197470890343,PDCSAP_FLUX__mean_second_derivative_central
7057.702639836798,PDCSAP_FLUX__median
7037.034216388692,PDCSAP_FLUX__mean
0.9930384888762914,PDCSAP_FLUX__length
16.377769607879113,PDCSAP_FLUX__standard_deviation
1.0376141637944762,PDCSAP_FLUX__variation_coefficient
5.371100566630157,PDCSAP_FLUX__variance
0.9819409614136052,PDCSAP_FLUX__skewness
0.988709971951945,PDCSAP_FLUX__kurtosis
7051.911145128129,PDCSAP_FLUX__root_mean_square
7.6607271060718825,PDCSAP_FLUX__absolute_sum_of_changes
1.0374525978480418,PDCSAP_FLUX__longest_strike_below_mean
1.0324506268889484,PDCSAP_FLUX__longest_strike_above_mean
1.0327857487718604,PDCSAP_FLUX__count_above_mean
0.9589786934360618,PDCSAP_FLUX__count_below_mean
0.2877261108732769,PDCSAP_FLUX__last_location_of_maximum
0.2879682850599509,PDCSAP_FLUX__first_location_of_maximum
0.29572284969632745,PDCSAP_FLUX__last_location_of_minimum
0.2959879754477437,PDCSAP_FLUX__first_location_of_minimum
0.7274828626730662,PDCSAP_FLUX__percentage_of_reoccurring_values_to_all_values
0.5808791222336097,PDCSAP_FLUX__percentage_of_reoccurring_datapoints_to_all_datapoints
12.388276198050375,PDCSAP_FLUX__sum_of_reoccurring_values
10.3251337920445,PDCSAP_FLUX__sum_of_reoccurring_data_points
0.032301683676527825,PDCSAP_FLUX__ratio_value_number_to_time_series_length
4919.010143947023,PDCSAP_FLUX__maximum
4923.043643317341,PDCSAP_FLUX__absolute_maximum
670.9843572887082,PDCSAP_FLUX__minimum
0.7869644660056987,PDCSAP_FLUX__benford_correlation
68.17359520322573,PDCSAP_FLUX__time_reversal_asymmetry_statistic__lag_1
241.54247839182221,PDCSAP_FLUX__time_reversal_asymmetry_statistic__lag_2
96.2841056774595,PDCSAP_FLUX__time_reversal_asymmetry_statistic__lag_3
30152446939.766712,PDCSAP_FLUX__c3__lag_1
111899014271.13812,PDCSAP_FLUX__c3__lag_2
29632259051.147137,PDCSAP_FLUX__c3__lag_3
0.5861495049206589,PDCSAP_FLUX__cid_ce__normalize_True
20.362723131198628,PDCSAP_FLUX__cid_ce__normalize_False
0.047058789369640176,PDCSAP_FLUX__symmetry_looking__r_0.05
0.00409844959090559,PDCSAP_FLUX__symmetry_looking__r_0.1
0.00037575848444074914,PDCSAP_FLUX__symmetry_looking__r_0.15000000000000002
3.0064432559199738e-05,PDCSAP_FLUX__symmetry_looking__r_0.2
0.32454677982733665,PDCSAP_FLUX__large_standard_deviation__r_0.05
0.6659031214648189,PDCSAP_FLUX__large_standard_deviation__r_0.1
0.8476749981292346,PDCSAP_FLUX__large_standard_deviation__r_0.15000000000000002
0.9338566275058929,PDCSAP_FLUX__large_standard_deviation__r_0.2
0.9850964195773289,PDCSAP_FLUX__large_standard_deviation__r_0.25
0.9997680940461608,PDCSAP_FLUX__large_standard_deviation__r_0.30000000000000004
1.000604242977105,PDCSAP_FLUX__large_standard_deviation__r_0.35000000000000003
5787.797014436285,PDCSAP_FLUX__quantile__q_0.1
6709.236645728014,PDCSAP_FLUX__quantile__q_0.2
6904.900526003778,PDCSAP_FLUX__quantile__q_0.3
7004.186807228492,PDCSAP_FLUX__quantile__q_0.4
7129.787810524438,PDCSAP_FLUX__quantile__q_0.6
6956.0111278906215,PDCSAP_FLUX__quantile__q_0.7
6801.851458459066,PDCSAP_FLUX__quantile__q_0.8
6586.174040721964,PDCSAP_FLUX__quantile__q_0.9
0.35875543249083125,PDCSAP_FLUX__autocorrelation__lag_1
0.3764797341656953,PDCSAP_FLUX__autocorrelation__lag_2
0.4008010493270365,PDCSAP_FLUX__autocorrelation__lag_3
0.430474021434356,PDCSAP_FLUX__autocorrelation__lag_4
0.4607646025534656,PDCSAP_FLUX__autocorrelation__lag_5
0.486162395915849,PDCSAP_FLUX__autocorrelation__lag_6
0.5042625883246428,PDCSAP_FLUX__autocorrelation__lag_7
0.520691148645149,PDCSAP_FLUX__autocorrelation__lag_8
0.5326488710936259,PDCSAP_FLUX__autocorrelation__lag_9
0.544680595116287,"PDCSAP_FLUX__agg_autocorrelation__f_agg_""mean""__maxlag_40"
0.5935585345852736,"PDCSAP_FLUX__agg_autocorrelation__f_agg_""median""__maxlag_40"
0.9046645344950148,"PDCSAP_FLUX__agg_autocorrelation__f_agg_""var""__maxlag_40"
0.3587492459394577,PDCSAP_FLUX__partial_autocorrelation__lag_1
0.9971338342256892,PDCSAP_FLUX__partial_autocorrelation__lag_2
0.9444690826175344,PDCSAP_FLUX__partial_autocorrelation__lag_3
1.01060454323728,PDCSAP_FLUX__partial_autocorrelation__lag_4
1.0004114424758936,PDCSAP_FLUX__partial_autocorrelation__lag_5
0.999746641948746,PDCSAP_FLUX__partial_autocorrelation__lag_6
1.0003593795631749,PDCSAP_FLUX__partial_autocorrelation__lag_7
1.0001754778052734,PDCSAP_FLUX__partial_autocorrelation__lag_8
1.000067787219193,PDCSAP_FLUX__partial_autocorrelation__lag_9
1.0480868712316256,PDCSAP_FLUX__number_cwt_peaks__n_1
1.0286462094337756,PDCSAP_FLUX__number_cwt_peaks__n_5
0.9938489026397768,PDCSAP_FLUX__number_peaks__n_1
0.9995516033437956,PDCSAP_FLUX__number_peaks__n_3
1.002818362203696,PDCSAP_FLUX__number_peaks__n_5
1.0071495381555382,PDCSAP_FLUX__number_peaks__n_10
1.0266797191881407,PDCSAP_FLUX__number_peaks__n_50
0.2645604862745192,PDCSAP_FLUX__binned_entropy__max_bins_10
0.00012363200798856487,PDCSAP_FLUX__index_mass_quantile__q_0.1
4.88943659564092e-05,PDCSAP_FLUX__index_mass_quantile__q_0.2
2.484838713125547e-05,PDCSAP_FLUX__index_mass_quantile__q_0.3
1.3969029898936911e-05,PDCSAP_FLUX__index_mass_quantile__q_0.4
4.880804923484683e-06,PDCSAP_FLUX__index_mass_quantile__q_0.6
2.7559126553020333e-06,PDCSAP_FLUX__index_mass_quantile__q_0.7
1.4272692821882e-06,PDCSAP_FLUX__index_mass_quantile__q_0.8
5.430646810882771e-07,PDCSAP_FLUX__index_mass_quantile__q_0.9
1.3225284441359222,"PDCSAP_FLUX__cwt_coefficients__coeff_0__w_2__widths_(2, 5, 10, 20)"
1.550966008659343,"PDCSAP_FLUX__cwt_coefficients__coeff_0__w_5__widths_(2, 5, 10, 20)"
1.5854524240862171,"PDCSAP_FLUX__cwt_coefficients__coeff_0__w_10__widths_(2, 5, 10, 20)"
1.5561928838071986,"PDCSAP_FLUX__cwt_coefficients__coeff_0__w_20__widths_(2, 5, 10, 20)"
2374.670396577099,"PDCSAP_FLUX__cwt_coefficients__coeff_1__w_2__widths_(2, 5, 10, 20)"
666.8886681099792,"PDCSAP_FLUX__cwt_coefficients__coeff_1__w_5__widths_(2, 5, 10, 20)"
295.972303361429,"PDCSAP_FLUX__cwt_coefficients__coeff_1__w_10__widths_(2, 5, 10, 20)"
122.99848945308716,"PDCSAP_FLUX__cwt_coefficients__coeff_1__w_20__widths_(2, 5, 10, 20)"
4681.833297567955,"PDCSAP_FLUX__cwt_coefficients__coeff_2__w_2__widths_(2, 5, 10, 20)"
1784.0678303942254,"PDCSAP_FLUX__cwt_coefficients__coeff_2__w_5__widths_(2, 5, 10, 20)"
1180.2572379536805,"PDCSAP_FLUX__cwt_coefficients__coeff_2__w_10__widths_(2, 5, 10, 20)"
542.3403558484222,"PDCSAP_FLUX__cwt_coefficients__coeff_2__w_20__widths_(2, 5, 10, 20)"
4026.5255105247497,"PDCSAP_FLUX__cwt_coefficients__coeff_3__w_2__widths_(2, 5, 10, 20)"
2861.720641201859,"PDCSAP_FLUX__cwt_coefficients__coeff_3__w_5__widths_(2, 5, 10, 20)"
2706.633647843404,"PDCSAP_FLUX__cwt_coefficients__coeff_3__w_10__widths_(2, 5, 10, 20)"
1361.6994778375927,"PDCSAP_FLUX__cwt_coefficients__coeff_3__w_20__widths_(2, 5, 10, 20)"
1163.6066666884365,"PDCSAP_FLUX__cwt_coefficients__coeff_4__w_2__widths_(2, 5, 10, 20)"
3864.983651486038,"PDCSAP_FLUX__cwt_coefficients__coeff_4__w_5__widths_(2, 5, 10, 20)"
4999.395917985807,"PDCSAP_FLUX__cwt_coefficients__coeff_4__w_10__widths_(2, 5, 10, 20)"
2689.031190978912,"PDCSAP_FLUX__cwt_coefficients__coeff_4__w_20__widths_(2, 5, 10, 20)"
241.844955058712,"PDCSAP_FLUX__cwt_coefficients__coeff_5__w_2__widths_(2, 5, 10, 20)"
4916.070824672801,"PDCSAP_FLUX__cwt_coefficients__coeff_5__w_5__widths_(2, 5, 10, 20)"
8366.105408972784,"PDCSAP_FLUX__cwt_coefficients__coeff_5__w_10__widths_(2, 5, 10, 20)"
4565.792974667311,"PDCSAP_FLUX__cwt_coefficients__coeff_5__w_20__widths_(2, 5, 10, 20)"
44.14819291832469,"PDCSAP_FLUX__cwt_coefficients__coeff_6__w_2__widths_(2, 5, 10, 20)"
6087.607316371018,"PDCSAP_FLUX__cwt_coefficients__coeff_6__w_5__widths_(2, 5, 10, 20)"
12652.326284194103,"PDCSAP_FLUX__cwt_coefficients__coeff_6__w_10__widths_(2, 5, 10, 20)"
6971.132497090347,"PDCSAP_FLUX__cwt_coefficients__coeff_6__w_20__widths_(2, 5, 10, 20)"
4.497843487911221,"PDCSAP_FLUX__cwt_coefficients__coeff_7__w_2__widths_(2, 5, 10, 20)"
7208.613470130635,"PDCSAP_FLUX__cwt_coefficients__coeff_7__w_5__widths_(2, 5, 10, 20)"
18356.708887967656,"PDCSAP_FLUX__cwt_coefficients__coeff_7__w_10__widths_(2, 5, 10, 20)"
9763.272956504781,"PDCSAP_FLUX__cwt_coefficients__coeff_7__w_20__widths_(2, 5, 10, 20)"
1.6566706777489466,"PDCSAP_FLUX__cwt_coefficients__coeff_8__w_2__widths_(2, 5, 10, 20)"
7396.756630087901,"PDCSAP_FLUX__cwt_coefficients__coeff_8__w_5__widths_(2, 5, 10, 20)"
23245.03877878525,"PDCSAP_FLUX__cwt_coefficients__coeff_8__w_10__widths_(2, 5, 10, 20)"
12051.854998934043,"PDCSAP_FLUX__cwt_coefficients__coeff_8__w_20__widths_(2, 5, 10, 20)"
1.4245334013233089,"PDCSAP_FLUX__cwt_coefficients__coeff_9__w_2__widths_(2, 5, 10, 20)"
5021.508952379591,"PDCSAP_FLUX__cwt_coefficients__coeff_9__w_5__widths_(2, 5, 10, 20)"
24008.4104534626,"PDCSAP_FLUX__cwt_coefficients__coeff_9__w_10__widths_(2, 5, 10, 20)"
13738.833742741834,"PDCSAP_FLUX__cwt_coefficients__coeff_9__w_20__widths_(2, 5, 10, 20)"
1.2217849175299982,"PDCSAP_FLUX__cwt_coefficients__coeff_10__w_2__widths_(2, 5, 10, 20)"
2163.3738511705205,"PDCSAP_FLUX__cwt_coefficients__coeff_10__w_5__widths_(2, 5, 10, 20)"
22384.083190483514,"PDCSAP_FLUX__cwt_coefficients__coeff_10__w_10__widths_(2, 5, 10, 20)"
14770.878073753242,"PDCSAP_FLUX__cwt_coefficients__coeff_10__w_20__widths_(2, 5, 10, 20)"
1.0799039977073115,"PDCSAP_FLUX__cwt_coefficients__coeff_11__w_2__widths_(2, 5, 10, 20)"
769.2258748514121,"PDCSAP_FLUX__cwt_coefficients__coeff_11__w_5__widths_(2, 5, 10, 20)"
17235.58538817012,"PDCSAP_FLUX__cwt_coefficients__coeff_11__w_10__widths_(2, 5, 10, 20)"
14184.756433873774,"PDCSAP_FLUX__cwt_coefficients__coeff_11__w_20__widths_(2, 5, 10, 20)"
1.025103144402819,"PDCSAP_FLUX__cwt_coefficients__coeff_12__w_2__widths_(2, 5, 10, 20)"
266.2485969363795,"PDCSAP_FLUX__cwt_coefficients__coeff_12__w_5__widths_(2, 5, 10, 20)"
12911.190807099452,"PDCSAP_FLUX__cwt_coefficients__coeff_12__w_10__widths_(2, 5, 10, 20)"
10363.78554298343,"PDCSAP_FLUX__cwt_coefficients__coeff_12__w_20__widths_(2, 5, 10, 20)"
1.0977677099237368,"PDCSAP_FLUX__cwt_coefficients__coeff_13__w_2__widths_(2, 5, 10, 20)"
93.71411034884396,"PDCSAP_FLUX__cwt_coefficients__coeff_13__w_5__widths_(2, 5, 10, 20)"
9396.323696828384,"PDCSAP_FLUX__cwt_coefficients__coeff_13__w_10__widths_(2, 5, 10, 20)"
12236.707057961667,"PDCSAP_FLUX__cwt_coefficients__coeff_13__w_20__widths_(2, 5, 10, 20)"
1.1464835586356057,"PDCSAP_FLUX__cwt_coefficients__coeff_14__w_2__widths_(2, 5, 10, 20)"
34.069653538732176,"PDCSAP_FLUX__cwt_coefficients__coeff_14__w_5__widths_(2, 5, 10, 20)"
6891.39644476293,"PDCSAP_FLUX__cwt_coefficients__coeff_14__w_10__widths_(2, 5, 10, 20)"
11012.69169981608,"PDCSAP_FLUX__cwt_coefficients__coeff_14__w_20__widths_(2, 5, 10, 20)"
6.9872264815811995,PDCSAP_FLUX__spkt_welch_density__coeff_2
51.854363891749294,PDCSAP_FLUX__spkt_welch_density__coeff_5
9.947333913752598,PDCSAP_FLUX__spkt_welch_density__coeff_8
1.9189993075948841,PDCSAP_FLUX__ar_coefficient__coeff_0__k_10
0.7206041377010487,PDCSAP_FLUX__ar_coefficient__coeff_1__k_10
1.0467086222582582,PDCSAP_FLUX__ar_coefficient__coeff_2__k_10
0.8789592989112867,PDCSAP_FLUX__ar_coefficient__coeff_3__k_10
0.89470855811372,PDCSAP_FLUX__ar_coefficient__coeff_4__k_10
0.8612156041298668,PDCSAP_FLUX__ar_coefficient__coeff_5__k_10
0.8987833096248293,PDCSAP_FLUX__ar_coefficient__coeff_6__k_10
0.8952302541985104,PDCSAP_FLUX__ar_coefficient__coeff_7__k_10
0.9076494334473592,PDCSAP_FLUX__ar_coefficient__coeff_8__k_10
0.8934739561922012,PDCSAP_FLUX__ar_coefficient__coeff_9__k_10
0.892863199181713,PDCSAP_FLUX__ar_coefficient__coeff_10__k_10
1.1295960650286352,"PDCSAP_FLUX__change_quantiles__f_agg_""mean""__isabs_False__qh_0.2__ql_0.0"
2113.475518376768,"PDCSAP_FLUX__change_quantiles__f_agg_""var""__isabs_False__qh_0.2__ql_0.0"
28.496204827527237,"PDCSAP_FLUX__change_quantiles__f_agg_""mean""__isabs_True__qh_0.2__ql_0.0"
1829.6050124549224,"PDCSAP_FLUX__change_quantiles__f_agg_""var""__isabs_True__qh_0.2__ql_0.0"
1.1268617764548907,"PDCSAP_FLUX__change_quantiles__f_agg_""mean""__isabs_False__qh_0.4__ql_0.0"
31637.225265075966,"PDCSAP_FLUX__change_quantiles__f_agg_""var""__isabs_False__qh_0.4__ql_0.0"
27.696495291640982,"PDCSAP_FLUX__change_quantiles__f_agg_""mean""__isabs_True__qh_0.4__ql_0.0"
26018.024776104958,"PDCSAP_FLUX__change_quantiles__f_agg_""var""__isabs_True__qh_0.4__ql_0.0"
1.1929009704679396,"PDCSAP_FLUX__change_quantiles__f_agg_""mean""__isabs_False__qh_0.6__ql_0.0"
127032.82238060686,"PDCSAP_FLUX__change_quantiles__f_agg_""var""__isabs_False__qh_0.6__ql_0.0"
28.354421117294308,"PDCSAP_FLUX__change_quantiles__f_agg_""mean""__isabs_True__qh_0.6__ql_0.0"
137986.57365086034,"PDCSAP_FLUX__change_quantiles__f_agg_""var""__isabs_True__qh_0.6__ql_0.0"
1.2310559596454576,"PDCSAP_FLUX__change_quantiles__f_agg_""mean""__isabs_False__qh_0.8__ql_0.0"
155652.64338621398,"PDCSAP_FLUX__change_quantiles__f_agg_""var""__isabs_False__qh_0.8__ql_0.0"
28.16839144750895,"PDCSAP_FLUX__change_quantiles__f_agg_""mean""__isabs_True__qh_0.8__ql_0.0"
180473.11958625575,"PDCSAP_FLUX__change_quantiles__f_agg_""var""__isabs_True__qh_0.8__ql_0.0"
1.4334963425628438,"PDCSAP_FLUX__change_quantiles__f_agg_""mean""__isabs_False__qh_1.0__ql_0.0"
26876.734228205343,"PDCSAP_FLUX__change_quantiles__f_agg_""var""__isabs_False__qh_1.0__ql_0.0"
26.499622637302533,"PDCSAP_FLUX__change_quantiles__f_agg_""mean""__isabs_True__qh_1.0__ql_0.0"
21378.904851455885,"PDCSAP_FLUX__change_quantiles__f_agg_""var""__isabs_True__qh_1.0__ql_0.0"
1.1208600288042252,"PDCSAP_FLUX__change_quantiles__f_agg_""mean""__isabs_False__qh_0.4__ql_0.2"
27.158668015909576,"PDCSAP_FLUX__change_quantiles__f_agg_""var""__isabs_False__qh_0.4__ql_0.2"
15.698682141064515,"PDCSAP_FLUX__change_quantiles__f_agg_""mean""__isabs_True__qh_0.4__ql_0.2"
32.04925951393763,"PDCSAP_FLUX__change_quantiles__f_agg_""var""__isabs_True__qh_0.4__ql_0.2"
1.2929299752153716,"PDCSAP_FLUX__change_quantiles__f_agg_""mean""__isabs_False__qh_0.6__ql_0.2"
18.13701956406005,"PDCSAP_FLUX__change_quantiles__f_agg_""var""__isabs_False__qh_0.6__ql_0.2"
18.685205205064925,"PDCSAP_FLUX__change_quantiles__f_agg_""mean""__isabs_True__qh_0.6__ql_0.2"
73.72623094879927,"PDCSAP_FLUX__change_quantiles__f_agg_""var""__isabs_True__qh_0.6__ql_0.2"
8.937437982071257,"PDCSAP_FLUX__change_quantiles__f_agg_""mean""__isabs_False__qh_0.8__ql_0.2"
5669.2249764216585,"PDCSAP_FLUX__change_quantiles__f_agg_""var""__isabs_False__qh_0.8__ql_0.2"
2907.149225413924,"PDCSAP_FLUX__change_quantiles__f_agg_""mean""__isabs_True__qh_0.8__ql_0.2"
2624.389863219509,"PDCSAP_FLUX__change_quantiles__f_agg_""var""__isabs_True__qh_0.8__ql_0.2"
7.2700836900999475,"PDCSAP_FLUX__change_quantiles__f_agg_""mean""__isabs_False__qh_1.0__ql_0.2"
9571.65483963248,"PDCSAP_FLUX__change_quantiles__f_agg_""var""__isabs_False__qh_1.0__ql_0.2"
6962.2694796069145,"PDCSAP_FLUX__change_quantiles__f_agg_""mean""__isabs_True__qh_1.0__ql_0.2"
3198.058286706009,"PDCSAP_FLUX__change_quantiles__f_agg_""var""__isabs_True__qh_1.0__ql_0.2"
1.4437809366394716,"PDCSAP_FLUX__change_quantiles__f_agg_""mean""__isabs_False__qh_0.6__ql_0.4"
187.95709857810195,"PDCSAP_FLUX__change_quantiles__f_agg_""var""__isabs_False__qh_0.6__ql_0.4"
349.11971047969666,"PDCSAP_FLUX__change_quantiles__f_agg_""mean""__isabs_True__qh_0.6__ql_0.4"
68.95876042587153,"PDCSAP_FLUX__change_quantiles__f_agg_""var""__isabs_True__qh_0.6__ql_0.4"
4.846984559554356,"PDCSAP_FLUX__change_quantiles__f_agg_""mean""__isabs_False__qh_0.8__ql_0.4"
3916.280088845973,"PDCSAP_FLUX__change_quantiles__f_agg_""var""__isabs_False__qh_0.8__ql_0.4"
3980.9081075831737,"PDCSAP_FLUX__change_quantiles__f_agg_""mean""__isabs_True__qh_0.8__ql_0.4"
1726.192360138356,"PDCSAP_FLUX__change_quantiles__f_agg_""var""__isabs_True__qh_0.8__ql_0.4"
6.462276006176626,"PDCSAP_FLUX__change_quantiles__f_agg_""mean""__isabs_False__qh_1.0__ql_0.4"
18914.46301657853,"PDCSAP_FLUX__change_quantiles__f_agg_""var""__isabs_False__qh_1.0__ql_0.4"
20770.126420382145,"PDCSAP_FLUX__change_quantiles__f_agg_""mean""__isabs_True__qh_1.0__ql_0.4"
7632.328361936134,"PDCSAP_FLUX__change_quantiles__f_agg_""var""__isabs_True__qh_1.0__ql_0.4"
2.2678384484335528,"PDCSAP_FLUX__change_quantiles__f_agg_""mean""__isabs_False__qh_0.8__ql_0.6"
541.5027792095701,"PDCSAP_FLUX__change_quantiles__f_agg_""var""__isabs_False__qh_0.8__ql_0.6"
508.73156174189813,"PDCSAP_FLUX__change_quantiles__f_agg_""mean""__isabs_True__qh_0.8__ql_0.6"
287.64976386221286,"PDCSAP_FLUX__change_quantiles__f_agg_""var""__isabs_True__qh_0.8__ql_0.6"
4.354761812227581,"PDCSAP_FLUX__change_quantiles__f_agg_""mean""__isabs_False__qh_1.0__ql_0.6"
7769.2306910722045,"PDCSAP_FLUX__change_quantiles__f_agg_""var""__isabs_False__qh_1.0__ql_0.6"
9688.69330411785,"PDCSAP_FLUX__change_quantiles__f_agg_""mean""__isabs_True__qh_1.0__ql_0.6"
6577.761362016547,"PDCSAP_FLUX__change_quantiles__f_agg_""var""__isabs_True__qh_1.0__ql_0.6"
3.168784617617622,"PDCSAP_FLUX__change_quantiles__f_agg_""mean""__isabs_False__qh_1.0__ql_0.8"
1880.858533326481,"PDCSAP_FLUX__change_quantiles__f_agg_""var""__isabs_False__qh_1.0__ql_0.8"
700.4240844068344,"PDCSAP_FLUX__change_quantiles__f_agg_""mean""__isabs_True__qh_1.0__ql_0.8"
1456.6075866339634,"PDCSAP_FLUX__change_quantiles__f_agg_""var""__isabs_True__qh_1.0__ql_0.8"
1.863983145382107,"PDCSAP_FLUX__fft_coefficient__attr_""real""__coeff_0"
12.33243231198783,"PDCSAP_FLUX__fft_coefficient__attr_""real""__coeff_1"
8.050557871227804,"PDCSAP_FLUX__fft_coefficient__attr_""real""__coeff_2"
17.26949774717228,"PDCSAP_FLUX__fft_coefficient__attr_""real""__coeff_3"
21.407766211111372,"PDCSAP_FLUX__fft_coefficient__attr_""real""__coeff_4"
16.869757490217406,"PDCSAP_FLUX__fft_coefficient__attr_""real""__coeff_5"
12.953344083846678,"PDCSAP_FLUX__fft_coefficient__attr_""real""__coeff_6"
16.992449137106135,"PDCSAP_FLUX__fft_coefficient__attr_""real""__coeff_7"
15.423048335938105,"PDCSAP_FLUX__fft_coefficient__attr_""real""__coeff_8"
19.751774587176254,"PDCSAP_FLUX__fft_coefficient__attr_""real""__coeff_9"
16.154158505737747,"PDCSAP_FLUX__fft_coefficient__attr_""real""__coeff_10"
12.00576725097728,"PDCSAP_FLUX__fft_coefficient__attr_""real""__coeff_11"
10.288157612979203,"PDCSAP_FLUX__fft_coefficient__attr_""real""__coeff_12"
16.92788312669136,"PDCSAP_FLUX__fft_coefficient__attr_""real""__coeff_13"
22.916965830566397,"PDCSAP_FLUX__fft_coefficient__attr_""real""__coeff_14"
9.49974789399236,"PDCSAP_FLUX__fft_coefficient__attr_""real""__coeff_15"
23.19530662172225,"PDCSAP_FLUX__fft_coefficient__attr_""real""__coeff_16"
11.988645797778835,"PDCSAP_FLUX__fft_coefficient__attr_""real""__coeff_17"
22.81223705241896,"PDCSAP_FLUX__fft_coefficient__attr_""real""__coeff_18"
8.188986203813846,"PDCSAP_FLUX__fft_coefficient__attr_""real""__coeff_19"
15.343094236261502,"PDCSAP_FLUX__fft_coefficient__attr_""real""__coeff_20"
8.964661199274762,"PDCSAP_FLUX__fft_coefficient__attr_""real""__coeff_21"
7.543800002656781,"PDCSAP_FLUX__fft_coefficient__attr_""real""__coeff_22"
11.124376032947529,"PDCSAP_FLUX__fft_coefficient__attr_""real""__coeff_23"
13.214797874893794,"PDCSAP_FLUX__fft_coefficient__attr_""real""__coeff_24"
8.736432874719657,"PDCSAP_FLUX__fft_coefficient__attr_""real""__coeff_25"
13.467559562839766,"PDCSAP_FLUX__fft_coefficient__attr_""real""__coeff_26"
22.580965555898782,"PDCSAP_FLUX__fft_coefficient__attr_""real""__coeff_27"
20.84560607796886,"PDCSAP_FLUX__fft_coefficient__attr_""real""__coeff_28"
14.252698222493406,"PDCSAP_FLUX__fft_coefficient__attr_""real""__coeff_29"
12.55226524467857,"PDCSAP_FLUX__fft_coefficient__attr_""real""__coeff_30"
22.356076385303417,"PDCSAP_FLUX__fft_coefficient__attr_""real""__coeff_31"
28.50711222824308,"PDCSAP_FLUX__fft_coefficient__attr_""real""__coeff_32"
11.31490883416567,"PDCSAP_FLUX__fft_coefficient__attr_""real""__coeff_33"
12.809285882576075,"PDCSAP_FLUX__fft_coefficient__attr_""real""__coeff_34"
9.694466852265396,"PDCSAP_FLUX__fft_coefficient__attr_""real""__coeff_35"
10.374662750304168,"PDCSAP_FLUX__fft_coefficient__attr_""real""__coeff_36"
15.42006889177386,"PDCSAP_FLUX__fft_coefficient__attr_""real""__coeff_37"
8.607490627275244,"PDCSAP_FLUX__fft_coefficient__attr_""real""__coeff_38"
10.743857131146159,"PDCSAP_FLUX__fft_coefficient__attr_""real""__coeff_39"
7.589745204851843,"PDCSAP_FLUX__fft_coefficient__attr_""real""__coeff_40"
17.354691563091755,"PDCSAP_FLUX__fft_coefficient__attr_""real""__coeff_41"
9.200976527740304,"PDCSAP_FLUX__fft_coefficient__attr_""real""__coeff_42"
12.35154146626268,"PDCSAP_FLUX__fft_coefficient__attr_""real""__coeff_43"
11.616676208111198,"PDCSAP_FLUX__fft_coefficient__attr_""real""__coeff_44"
9.076369400037628,"PDCSAP_FLUX__fft_coefficient__attr_""real""__coeff_45"
6.569509494729202,"PDCSAP_FLUX__fft_coefficient__attr_""real""__coeff_46"
8.139244903887484,"PDCSAP_FLUX__fft_coefficient__attr_""real""__coeff_47"
12.418757521926892,"PDCSAP_FLUX__fft_coefficient__attr_""real""__coeff_48"
16.104059437785608,"PDCSAP_FLUX__fft_coefficient__attr_""real""__coeff_49"
9.821182120715449,"PDCSAP_FLUX__fft_coefficient__attr_""real""__coeff_50"
8.134605674258124,"PDCSAP_FLUX__fft_coefficient__attr_""real""__coeff_51"
7.907240249087573,"PDCSAP_FLUX__fft_coefficient__attr_""real""__coeff_52"
13.088986520728456,"PDCSAP_FLUX__fft_coefficient__attr_""real""__coeff_53"
26.230787412710853,"PDCSAP_FLUX__fft_coefficient__attr_""real""__coeff_54"
31.457625453456554,"PDCSAP_FLUX__fft_coefficient__attr_""real""__coeff_55"
16.779717747663902,"PDCSAP_FLUX__fft_coefficient__attr_""real""__coeff_56"
18.161653369977273,"PDCSAP_FLUX__fft_coefficient__attr_""real""__coeff_57"
11.521467158454858,"PDCSAP_FLUX__fft_coefficient__attr_""real""__coeff_58"
10.514198042660762,"PDCSAP_FLUX__fft_coefficient__attr_""real""__coeff_59"
11.808042803923463,"PDCSAP_FLUX__fft_coefficient__attr_""real""__coeff_60"
16.501273764799972,"PDCSAP_FLUX__fft_coefficient__attr_""real""__coeff_61"
15.64608458677342,"PDCSAP_FLUX__fft_coefficient__attr_""real""__coeff_62"
18.711654578738276,"PDCSAP_FLUX__fft_coefficient__attr_""real""__coeff_63"
27.756529557430067,"PDCSAP_FLUX__fft_coefficient__attr_""real""__coeff_64"
17.951309511139797,"PDCSAP_FLUX__fft_coefficient__attr_""real""__coeff_65"
12.89956746903541,"PDCSAP_FLUX__fft_coefficient__attr_""real""__coeff_66"
10.552427921918467,"PDCSAP_FLUX__fft_coefficient__attr_""real""__coeff_67"
10.01712650421657,"PDCSAP_FLUX__fft_coefficient__attr_""real""__coeff_68"
12.425005855472607,"PDCSAP_FLUX__fft_coefficient__attr_""real""__coeff_69"
6.058932847608214,"PDCSAP_FLUX__fft_coefficient__attr_""real""__coeff_70"
13.674114004347935,"PDCSAP_FLUX__fft_coefficient__attr_""real""__coeff_71"
15.8713800656382,"PDCSAP_FLUX__fft_coefficient__attr_""real""__coeff_72"
17.389426132392426,"PDCSAP_FLUX__fft_coefficient__attr_""real""__coeff_73"
15.137611805818135,"PDCSAP_FLUX__fft_coefficient__attr_""real""__coeff_74"
7.0073435465980625,"PDCSAP_FLUX__fft_coefficient__attr_""real""__coeff_75"
8.438275588315143,"PDCSAP_FLUX__fft_coefficient__attr_""real""__coeff_76"
10.119251757434649,"PDCSAP_FLUX__fft_coefficient__attr_""real""__coeff_77"
11.799717305674966,"PDCSAP_FLUX__fft_coefficient__attr_""real""__coeff_78"
15.20468101662109,"PDCSAP_FLUX__fft_coefficient__attr_""real""__coeff_79"
31.066750000434,"PDCSAP_FLUX__fft_coefficient__attr_""real""__coeff_80"
16.960321790378813,"PDCSAP_FLUX__fft_coefficient__attr_""real""__coeff_81"
12.856219129310142,"PDCSAP_FLUX__fft_coefficient__attr_""real""__coeff_82"
20.969865260019322,"PDCSAP_FLUX__fft_coefficient__attr_""real""__coeff_83"
9.39815261662349,"PDCSAP_FLUX__fft_coefficient__attr_""real""__coeff_84"
13.757152059196224,"PDCSAP_FLUX__fft_coefficient__attr_""real""__coeff_85"
10.349077581089787,"PDCSAP_FLUX__fft_coefficient__attr_""real""__coeff_86"
11.221883237775755,"PDCSAP_FLUX__fft_coefficient__attr_""real""__coeff_87"
26.48862096944545,"PDCSAP_FLUX__fft_coefficient__attr_""real""__coeff_88"
13.908434407582181,"PDCSAP_FLUX__fft_coefficient__attr_""real""__coeff_89"
12.105737166768652,"PDCSAP_FLUX__fft_coefficient__attr_""real""__coeff_90"
8.496078302759686,"PDCSAP_FLUX__fft_coefficient__attr_""real""__coeff_91"
17.069431952630975,"PDCSAP_FLUX__fft_coefficient__attr_""real""__coeff_92"
7.334040012075692,"PDCSAP_FLUX__fft_coefficient__attr_""real""__coeff_93"
12.365594703672464,"PDCSAP_FLUX__fft_coefficient__attr_""real""__coeff_94"
9.854654515387109,"PDCSAP_FLUX__fft_coefficient__attr_""real""__coeff_95"
10.749333619201376,"PDCSAP_FLUX__fft_coefficient__attr_""real""__coeff_96"
19.24841905757184,"PDCSAP_FLUX__fft_coefficient__attr_""real""__coeff_97"
15.505894016673412,"PDCSAP_FLUX__fft_coefficient__attr_""real""__coeff_98"
20.839076569432184,"PDCSAP_FLUX__fft_coefficient__attr_""real""__coeff_99"
10.103753517820207,"PDCSAP_FLUX__fft_coefficient__attr_""imag""__coeff_1"
15.95028702800424,"PDCSAP_FLUX__fft_coefficient__attr_""imag""__coeff_2"
17.885798483649676,"PDCSAP_FLUX__fft_coefficient__attr_""imag""__coeff_3"
11.150059210361853,"PDCSAP_FLUX__fft_coefficient__attr_""imag""__coeff_4"
16.387053769346167,"PDCSAP_FLUX__fft_coefficient__attr_""imag""__coeff_5"
17.03503520545417,"PDCSAP_FLUX__fft_coefficient__attr_""imag""__coeff_6"
21.865785277499814,"PDCSAP_FLUX__fft_coefficient__attr_""imag""__coeff_7"
18.584131936802926,"PDCSAP_FLUX__fft_coefficient__attr_""imag""__coeff_8"
13.468078244595866,"PDCSAP_FLUX__fft_coefficient__attr_""imag""__coeff_9"
7.469498824431692,"PDCSAP_FLUX__fft_coefficient__attr_""imag""__coeff_10"
19.495199555556518,"PDCSAP_FLUX__fft_coefficient__attr_""imag""__coeff_11"
16.567799780425513,"PDCSAP_FLUX__fft_coefficient__attr_""imag""__coeff_12"
15.014116529587625,"PDCSAP_FLUX__fft_coefficient__attr_""imag""__coeff_13"
15.433121172494591,"PDCSAP_FLUX__fft_coefficient__attr_""imag""__coeff_14"
17.673598714006623,"PDCSAP_FLUX__fft_coefficient__attr_""imag""__coeff_15"
23.33117443268263,"PDCSAP_FLUX__fft_coefficient__attr_""imag""__coeff_16"
13.524639180010078,"PDCSAP_FLUX__fft_coefficient__attr_""imag""__coeff_17"
13.729382682180946,"PDCSAP_FLUX__fft_coefficient__attr_""imag""__coeff_18"
16.048376890137153,"PDCSAP_FLUX__fft_coefficient__attr_""imag""__coeff_19"
11.732748849766296,"PDCSAP_FLUX__fft_coefficient__attr_""imag""__coeff_20"
12.288178340152829,"PDCSAP_FLUX__fft_coefficient__attr_""imag""__coeff_21"
12.106226831793556,"PDCSAP_FLUX__fft_coefficient__attr_""imag""__coeff_22"
6.5502693815847675,"PDCSAP_FLUX__fft_coefficient__attr_""imag""__coeff_23"
7.632477915938507,"PDCSAP_FLUX__fft_coefficient__attr_""imag""__coeff_24"
11.136003806569981,"PDCSAP_FLUX__fft_coefficient__attr_""imag""__coeff_25"
12.88380369953374,"PDCSAP_FLUX__fft_coefficient__attr_""imag""__coeff_26"
24.738536238249623,"PDCSAP_FLUX__fft_coefficient__attr_""imag""__coeff_27"
20.19078201568237,"PDCSAP_FLUX__fft_coefficient__attr_""imag""__coeff_28"
24.011670951174803,"PDCSAP_FLUX__fft_coefficient__attr_""imag""__coeff_29"
16.465773851032214,"PDCSAP_FLUX__fft_coefficient__attr_""imag""__coeff_30"
32.181755333531434,"PDCSAP_FLUX__fft_coefficient__attr_""imag""__coeff_31"
27.486465603366142,"PDCSAP_FLUX__fft_coefficient__attr_""imag""__coeff_32"
18.262930254593023,"PDCSAP_FLUX__fft_coefficient__attr_""imag""__coeff_33"
9.596022537109855,"PDCSAP_FLUX__fft_coefficient__attr_""imag""__coeff_34"
11.26003706443768,"PDCSAP_FLUX__fft_coefficient__attr_""imag""__coeff_35"
25.652968140683427,"PDCSAP_FLUX__fft_coefficient__attr_""imag""__coeff_36"
10.466476973763752,"PDCSAP_FLUX__fft_coefficient__attr_""imag""__coeff_37"
13.940993207281346,"PDCSAP_FLUX__fft_coefficient__attr_""imag""__coeff_38"
10.303154767140283,"PDCSAP_FLUX__fft_coefficient__attr_""imag""__coeff_39"
15.060945828644332,"PDCSAP_FLUX__fft_coefficient__attr_""imag""__coeff_40"
8.929296492497356,"PDCSAP_FLUX__fft_coefficient__attr_""imag""__coeff_41"
7.701265731864963,"PDCSAP_FLUX__fft_coefficient__attr_""imag""__coeff_42"
9.275533397097316,"PDCSAP_FLUX__fft_coefficient__attr_""imag""__coeff_43"
9.008758369819164,"PDCSAP_FLUX__fft_coefficient__attr_""imag""__coeff_44"
11.343494836290715,"PDCSAP_FLUX__fft_coefficient__attr_""imag""__coeff_45"
13.077200010758832,"PDCSAP_FLUX__fft_coefficient__attr_""imag""__coeff_46"
12.767659427552042,"PDCSAP_FLUX__fft_coefficient__attr_""imag""__coeff_47"
13.475423775872645,"PDCSAP_FLUX__fft_coefficient__attr_""imag""__coeff_48"
16.740525751813323,"PDCSAP_FLUX__fft_coefficient__attr_""imag""__coeff_49"
6.463295403572063,"PDCSAP_FLUX__fft_coefficient__attr_""imag""__coeff_50"
9.033707900627546,"PDCSAP_FLUX__fft_coefficient__attr_""imag""__coeff_51"
12.193773075904748,"PDCSAP_FLUX__fft_coefficient__attr_""imag""__coeff_52"
15.227489275517554,"PDCSAP_FLUX__fft_coefficient__attr_""imag""__coeff_53"
18.340393892100447,"PDCSAP_FLUX__fft_coefficient__attr_""imag""__coeff_54"
26.042347995245983,"PDCSAP_FLUX__fft_coefficient__attr_""imag""__coeff_55"
12.01395806139663,"PDCSAP_FLUX__fft_coefficient__attr_""imag""__coeff_56"
19.112090554181293,"PDCSAP_FLUX__fft_coefficient__attr_""imag""__coeff_57"
16.563184149583766,"PDCSAP_FLUX__fft_coefficient__attr_""imag""__coeff_58"
13.790538025032005,"PDCSAP_FLUX__fft_coefficient__attr_""imag""__coeff_59"
9.72624168270331,"PDCSAP_FLUX__fft_coefficient__attr_""imag""__coeff_60"
20.024922544011712,"PDCSAP_FLUX__fft_coefficient__attr_""imag""__coeff_61"
27.4192503677611,"PDCSAP_FLUX__fft_coefficient__attr_""imag""__coeff_62"
10.321469356507826,"PDCSAP_FLUX__fft_coefficient__attr_""imag""__coeff_63"
22.6818861346838,"PDCSAP_FLUX__fft_coefficient__attr_""imag""__coeff_64"
9.323722085652246,"PDCSAP_FLUX__fft_coefficient__attr_""imag""__coeff_65"
19.71232878222779,"PDCSAP_FLUX__fft_coefficient__attr_""imag""__coeff_66"
16.318882578688193,"PDCSAP_FLUX__fft_coefficient__attr_""imag""__coeff_67"
6.61106646999191,"PDCSAP_FLUX__fft_coefficient__attr_""imag""__coeff_68"
5.814670156044623,"PDCSAP_FLUX__fft_coefficient__attr_""imag""__coeff_69"
6.457491190272131,"PDCSAP_FLUX__fft_coefficient__attr_""imag""__coeff_70"
9.906080268316162,"PDCSAP_FLUX__fft_coefficient__attr_""imag""__coeff_71"
13.276703664778054,"PDCSAP_FLUX__fft_coefficient__attr_""imag""__coeff_72"
11.043287461366274,"PDCSAP_FLUX__fft_coefficient__attr_""imag""__coeff_73"
9.096718185491612,"PDCSAP_FLUX__fft_coefficient__attr_""imag""__coeff_74"
5.048104026997557,"PDCSAP_FLUX__fft_coefficient__attr_""imag""__coeff_75"
7.337667300702008,"PDCSAP_FLUX__fft_coefficient__attr_""imag""__coeff_76"
10.740406603625157,"PDCSAP_FLUX__fft_coefficient__attr_""imag""__coeff_77"
7.394329661104058,"PDCSAP_FLUX__fft_coefficient__attr_""imag""__coeff_78"
14.8200013357692,"PDCSAP_FLUX__fft_coefficient__attr_""imag""__coeff_79"
9.523247570126673,"PDCSAP_FLUX__fft_coefficient__attr_""imag""__coeff_80"
5.327084765116076,"PDCSAP_FLUX__fft_coefficient__attr_""imag""__coeff_81"
11.638560686939812,"PDCSAP_FLUX__fft_coefficient__attr_""imag""__coeff_82"
24.539506051214932,"PDCSAP_FLUX__fft_coefficient__attr_""imag""__coeff_83"
9.746158760580206,"PDCSAP_FLUX__fft_coefficient__attr_""imag""__coeff_84"
17.034960117224305,"PDCSAP_FLUX__fft_coefficient__attr_""imag""__coeff_85"
7.465676830073679,"PDCSAP_FLUX__fft_coefficient__attr_""imag""__coeff_86"
5.702792737151282,"PDCSAP_FLUX__fft_coefficient__attr_""imag""__coeff_87"
13.517806229083266,"PDCSAP_FLUX__fft_coefficient__attr_""imag""__coeff_88"
11.933574182685462,"PDCSAP_FLUX__fft_coefficient__attr_""imag""__coeff_89"
6.453208653109691,"PDCSAP_FLUX__fft_coefficient__attr_""imag""__coeff_90"
9.612093759813867,"PDCSAP_FLUX__fft_coefficient__attr_""imag""__coeff_91"
26.53141130073568,"PDCSAP_FLUX__fft_coefficient__attr_""imag""__coeff_92"
5.6337493328590815,"PDCSAP_FLUX__fft_coefficient__attr_""imag""__coeff_93"
18.745345091381317,"PDCSAP_FLUX__fft_coefficient__attr_""imag""__coeff_94"
11.93051101656268,"PDCSAP_FLUX__fft_coefficient__attr_""imag""__coeff_95"
38.11250994556168,"PDCSAP_FLUX__fft_coefficient__attr_""imag""__coeff_96"
9.486915180544171,"PDCSAP_FLUX__fft_coefficient__attr_""imag""__coeff_97"
17.493808139151376,"PDCSAP_FLUX__fft_coefficient__attr_""imag""__coeff_98"
9.578857799887313,"PDCSAP_FLUX__fft_coefficient__attr_""imag""__coeff_99"
1.9419959857396452,"PDCSAP_FLUX__fft_coefficient__attr_""abs""__coeff_0"
23.953421868244465,"PDCSAP_FLUX__fft_coefficient__attr_""abs""__coeff_1"
36.036008224537895,"PDCSAP_FLUX__fft_coefficient__attr_""abs""__coeff_2"
50.95682538301971,"PDCSAP_FLUX__fft_coefficient__attr_""abs""__coeff_3"
45.85758158317933,"PDCSAP_FLUX__fft_coefficient__attr_""abs""__coeff_4"
50.98096650803161,"PDCSAP_FLUX__fft_coefficient__attr_""abs""__coeff_5"
34.297174345204475,"PDCSAP_FLUX__fft_coefficient__attr_""abs""__coeff_6"
42.284657855416974,"PDCSAP_FLUX__fft_coefficient__attr_""abs""__coeff_7"
53.190649572173974,"PDCSAP_FLUX__fft_coefficient__attr_""abs""__coeff_8"
41.4744470139453,"PDCSAP_FLUX__fft_coefficient__attr_""abs""__coeff_9"
42.741671654636406,"PDCSAP_FLUX__fft_coefficient__attr_""abs""__coeff_10"
40.513307349496436,"PDCSAP_FLUX__fft_coefficient__attr_""abs""__coeff_11"
27.51682105358821,"PDCSAP_FLUX__fft_coefficient__attr_""abs""__coeff_12"
43.72811791169146,"PDCSAP_FLUX__fft_coefficient__attr_""abs""__coeff_13"
60.53526818126142,"PDCSAP_FLUX__fft_coefficient__attr_""abs""__coeff_14"
30.23958228520856,"PDCSAP_FLUX__fft_coefficient__attr_""abs""__coeff_15"
49.25768425421196,"PDCSAP_FLUX__fft_coefficient__attr_""abs""__coeff_16"
24.40053483684128,"PDCSAP_FLUX__fft_coefficient__attr_""abs""__coeff_17"
45.84026386337321,"PDCSAP_FLUX__fft_coefficient__attr_""abs""__coeff_18"
27.075121528315364,"PDCSAP_FLUX__fft_coefficient__attr_""abs""__coeff_19"
33.167792663745594,"PDCSAP_FLUX__fft_coefficient__attr_""abs""__coeff_20"
24.38904214183125,"PDCSAP_FLUX__fft_coefficient__attr_""abs""__coeff_21"
31.86389848458457,"PDCSAP_FLUX__fft_coefficient__attr_""abs""__coeff_22"
30.27854795764536,"PDCSAP_FLUX__fft_coefficient__attr_""abs""__coeff_23"
35.83283104134835,"PDCSAP_FLUX__fft_coefficient__attr_""abs""__coeff_24"
41.27461428573804,"PDCSAP_FLUX__fft_coefficient__attr_""abs""__coeff_25"
50.129571513176224,"PDCSAP_FLUX__fft_coefficient__attr_""abs""__coeff_26"
70.75571854473523,"PDCSAP_FLUX__fft_coefficient__attr_""abs""__coeff_27"
65.37008887124061,"PDCSAP_FLUX__fft_coefficient__attr_""abs""__coeff_28"
66.27928378241208,"PDCSAP_FLUX__fft_coefficient__attr_""abs""__coeff_29"
45.953753694007645,"PDCSAP_FLUX__fft_coefficient__attr_""abs""__coeff_30"
58.651298253854314,"PDCSAP_FLUX__fft_coefficient__attr_""abs""__coeff_31"
74.57830383795779,"PDCSAP_FLUX__fft_coefficient__attr_""abs""__coeff_32"
38.97302675576103,"PDCSAP_FLUX__fft_coefficient__attr_""abs""__coeff_33"
26.976566074687252,"PDCSAP_FLUX__fft_coefficient__attr_""abs""__coeff_34"
27.064577317080644,"PDCSAP_FLUX__fft_coefficient__attr_""abs""__coeff_35"
49.10429443002336,"PDCSAP_FLUX__fft_coefficient__attr_""abs""__coeff_36"
32.69168589932085,"PDCSAP_FLUX__fft_coefficient__attr_""abs""__coeff_37"
22.350249704647087,"PDCSAP_FLUX__fft_coefficient__attr_""abs""__coeff_38"
26.509275515294977,"PDCSAP_FLUX__fft_coefficient__attr_""abs""__coeff_39"
26.36287244467157,"PDCSAP_FLUX__fft_coefficient__attr_""abs""__coeff_40"
31.230168326580106,"PDCSAP_FLUX__fft_coefficient__attr_""abs""__coeff_41"
23.799989939915466,"PDCSAP_FLUX__fft_coefficient__attr_""abs""__coeff_42"
24.322922550878523,"PDCSAP_FLUX__fft_coefficient__attr_""abs""__coeff_43"
33.63785864734481,"PDCSAP_FLUX__fft_coefficient__attr_""abs""__coeff_44"
25.901646466996503,"PDCSAP_FLUX__fft_coefficient__attr_""abs""__coeff_45"
25.19192060760231,"PDCSAP_FLUX__fft_coefficient__attr_""abs""__coeff_46"
32.56545800482352,"PDCSAP_FLUX__fft_coefficient__attr_""abs""__coeff_47"
48.14692573879041,"PDCSAP_FLUX__fft_coefficient__attr_""abs""__coeff_48"
48.60186002381385,"PDCSAP_FLUX__fft_coefficient__attr_""abs""__coeff_49"
27.00671129731883,"PDCSAP_FLUX__fft_coefficient__attr_""abs""__coeff_50"
23.222183820782156,"PDCSAP_FLUX__fft_coefficient__attr_""abs""__coeff_51"
31.640857407501255,"PDCSAP_FLUX__fft_coefficient__attr_""abs""__coeff_52"
35.166877584172745,"PDCSAP_FLUX__fft_coefficient__attr_""abs""__coeff_53"
61.26965824364816,"PDCSAP_FLUX__fft_coefficient__attr_""abs""__coeff_54"
76.79011136939076,"PDCSAP_FLUX__fft_coefficient__attr_""abs""__coeff_55"
24.106710289074396,"PDCSAP_FLUX__fft_coefficient__attr_""abs""__coeff_56"
37.35911265969293,"PDCSAP_FLUX__fft_coefficient__attr_""abs""__coeff_57"
32.11919572632388,"PDCSAP_FLUX__fft_coefficient__attr_""abs""__coeff_58"
40.41631522316574,"PDCSAP_FLUX__fft_coefficient__attr_""abs""__coeff_59"
23.202946402906733,"PDCSAP_FLUX__fft_coefficient__attr_""abs""__coeff_60"
39.18891846249324,"PDCSAP_FLUX__fft_coefficient__attr_""abs""__coeff_61"
49.61858702258913,"PDCSAP_FLUX__fft_coefficient__attr_""abs""__coeff_62"
48.86519702640628,"PDCSAP_FLUX__fft_coefficient__attr_""abs""__coeff_63"
55.12359644792737,"PDCSAP_FLUX__fft_coefficient__attr_""abs""__coeff_64"
28.209975225254997,"PDCSAP_FLUX__fft_coefficient__attr_""abs""__coeff_65"
20.875727276602138,"PDCSAP_FLUX__fft_coefficient__attr_""abs""__coeff_66"
34.39763868734137,"PDCSAP_FLUX__fft_coefficient__attr_""abs""__coeff_67"
21.64787466527545,"PDCSAP_FLUX__fft_coefficient__attr_""abs""__coeff_68"
21.81924662193797,"PDCSAP_FLUX__fft_coefficient__attr_""abs""__coeff_69"
16.35070042005655,"PDCSAP_FLUX__fft_coefficient__attr_""abs""__coeff_70"
24.816716209893485,"PDCSAP_FLUX__fft_coefficient__attr_""abs""__coeff_71"
56.614249602647426,"PDCSAP_FLUX__fft_coefficient__attr_""abs""__coeff_72"
30.610719908616872,"PDCSAP_FLUX__fft_coefficient__attr_""abs""__coeff_73"
34.074380830851695,"PDCSAP_FLUX__fft_coefficient__attr_""abs""__coeff_74"
23.58507538255208,"PDCSAP_FLUX__fft_coefficient__attr_""abs""__coeff_75"
22.72608032737821,"PDCSAP_FLUX__fft_coefficient__attr_""abs""__coeff_76"
26.891842213084768,"PDCSAP_FLUX__fft_coefficient__attr_""abs""__coeff_77"
26.652298064538172,"PDCSAP_FLUX__fft_coefficient__attr_""abs""__coeff_78"
35.15663176193712,"PDCSAP_FLUX__fft_coefficient__attr_""abs""__coeff_79"
31.20104982537095,"PDCSAP_FLUX__fft_coefficient__attr_""abs""__coeff_80"
39.947252513128774,"PDCSAP_FLUX__fft_coefficient__attr_""abs""__coeff_81"
48.68381857457134,"PDCSAP_FLUX__fft_coefficient__attr_""abs""__coeff_82"
47.37352956331194,"PDCSAP_FLUX__fft_coefficient__attr_""abs""__coeff_83"
23.78703585636479,"PDCSAP_FLUX__fft_coefficient__attr_""abs""__coeff_84"
29.04890123695999,"PDCSAP_FLUX__fft_coefficient__attr_""abs""__coeff_85"
19.21227374012989,"PDCSAP_FLUX__fft_coefficient__attr_""abs""__coeff_86"
26.022961661990962,"PDCSAP_FLUX__fft_coefficient__attr_""abs""__coeff_87"
43.530908015653466,"PDCSAP_FLUX__fft_coefficient__attr_""abs""__coeff_88"
30.984333389789896,"PDCSAP_FLUX__fft_coefficient__attr_""abs""__coeff_89"
19.705580358747174,"PDCSAP_FLUX__fft_coefficient__attr_""abs""__coeff_90"
35.83571684703208,"PDCSAP_FLUX__fft_coefficient__attr_""abs""__coeff_91"
58.02966263407444,"PDCSAP_FLUX__fft_coefficient__attr_""abs""__coeff_92"
17.427500928801212,"PDCSAP_FLUX__fft_coefficient__attr_""abs""__coeff_93"
40.739526359893496,"PDCSAP_FLUX__fft_coefficient__attr_""abs""__coeff_94"
26.75093029122715,"PDCSAP_FLUX__fft_coefficient__attr_""abs""__coeff_95"
69.30191701089643,"PDCSAP_FLUX__fft_coefficient__attr_""abs""__coeff_96"
35.87504269342142,"PDCSAP_FLUX__fft_coefficient__attr_""abs""__coeff_97"
56.213776119281434,"PDCSAP_FLUX__fft_coefficient__attr_""abs""__coeff_98"
35.46674585153922,"PDCSAP_FLUX__fft_coefficient__attr_""abs""__coeff_99"
1.000464072023617,"PDCSAP_FLUX__fft_coefficient__attr_""angle""__coeff_0"
1.0255981445201052,"PDCSAP_FLUX__fft_coefficient__attr_""angle""__coeff_1"
1.0171862086119,"PDCSAP_FLUX__fft_coefficient__attr_""angle""__coeff_2"
1.0080129686569097,"PDCSAP_FLUX__fft_coefficient__attr_""angle""__coeff_3"
1.0135341912060092,"PDCSAP_FLUX__fft_coefficient__attr_""angle""__coeff_4"
1.0167894105744966,"PDCSAP_FLUX__fft_coefficient__attr_""angle""__coeff_5"
1.029059059937712,"PDCSAP_FLUX__fft_coefficient__attr_""angle""__coeff_6"
1.0391979607173778,"PDCSAP_FLUX__fft_coefficient__attr_""angle""__coeff_7"
1.0492883395488175,"PDCSAP_FLUX__fft_coefficient__attr_""angle""__coeff_8"
1.0561404044224645,"PDCSAP_FLUX__fft_coefficient__attr_""angle""__coeff_9"
1.065690056554327,"PDCSAP_FLUX__fft_coefficient__attr_""angle""__coeff_10"
1.0748191816159494,"PDCSAP_FLUX__fft_coefficient__attr_""angle""__coeff_11"
1.0836660796577062,"PDCSAP_FLUX__fft_coefficient__attr_""angle""__coeff_12"
1.0869785987066791,"PDCSAP_FLUX__fft_coefficient__attr_""angle""__coeff_13"
1.0978725110126406,"PDCSAP_FLUX__fft_coefficient__attr_""angle""__coeff_14"
1.0954540857288009,"PDCSAP_FLUX__fft_coefficient__attr_""angle""__coeff_15"
1.0946918432372807,"PDCSAP_FLUX__fft_coefficient__attr_""angle""__coeff_16"
1.0951314942472627,"PDCSAP_FLUX__fft_coefficient__attr_""angle""__coeff_17"
1.1013743470079038,"PDCSAP_FLUX__fft_coefficient__attr_""angle""__coeff_18"
1.1037306796022328,"PDCSAP_FLUX__fft_coefficient__attr_""angle""__coeff_19"
1.1039247297214618,"PDCSAP_FLUX__fft_coefficient__attr_""angle""__coeff_20"
1.1013365421700416,"PDCSAP_FLUX__fft_coefficient__attr_""angle""__coeff_21"
1.105688878875887,"PDCSAP_FLUX__fft_coefficient__attr_""angle""__coeff_22"
1.1042277066802897,"PDCSAP_FLUX__fft_coefficient__attr_""angle""__coeff_23"
1.1045330711021408,"PDCSAP_FLUX__fft_coefficient__attr_""angle""__coeff_24"
1.105094958084367,"PDCSAP_FLUX__fft_coefficient__attr_""angle""__coeff_25"
1.1014189656723343,"PDCSAP_FLUX__fft_coefficient__attr_""angle""__coeff_26"
1.1014091510345996,"PDCSAP_FLUX__fft_coefficient__attr_""angle""__coeff_27"
1.1035729220846575,"PDCSAP_FLUX__fft_coefficient__attr_""angle""__coeff_28"
1.093661445809718,"PDCSAP_FLUX__fft_coefficient__attr_""angle""__coeff_29"
1.0962886172990982,"PDCSAP_FLUX__fft_coefficient__attr_""angle""__coeff_30"
1.100992432068303,"PDCSAP_FLUX__fft_coefficient__attr_""angle""__coeff_31"
1.0998133456225911,"PDCSAP_FLUX__fft_coefficient__attr_""angle""__coeff_32"
1.1057522257895471,"PDCSAP_FLUX__fft_coefficient__attr_""angle""__coeff_33"
1.1019903582163573,"PDCSAP_FLUX__fft_coefficient__attr_""angle""__coeff_34"
1.0993342919115656,"PDCSAP_FLUX__fft_coefficient__attr_""angle""__coeff_35"
1.0993349169567066,"PDCSAP_FLUX__fft_coefficient__attr_""angle""__coeff_36"
1.1040701677196252,"PDCSAP_FLUX__fft_coefficient__attr_""angle""__coeff_37"
1.0967429176582406,"PDCSAP_FLUX__fft_coefficient__attr_""angle""__coeff_38"
1.095279573815728,"PDCSAP_FLUX__fft_coefficient__attr_""angle""__coeff_39"
1.0939532528252185,"PDCSAP_FLUX__fft_coefficient__attr_""angle""__coeff_40"
1.0966445933742641,"PDCSAP_FLUX__fft_coefficient__attr_""angle""__coeff_41"
1.0957311592280226,"PDCSAP_FLUX__fft_coefficient__attr_""angle""__coeff_42"
1.0932914175048267,"PDCSAP_FLUX__fft_coefficient__attr_""angle""__coeff_43"
1.0942791543520431,"PDCSAP_FLUX__fft_coefficient__attr_""angle""__coeff_44"
1.0904226190954447,"PDCSAP_FLUX__fft_coefficient__attr_""angle""__coeff_45"
1.0917950337930844,"PDCSAP_FLUX__fft_coefficient__attr_""angle""__coeff_46"
1.0919454575307368,"PDCSAP_FLUX__fft_coefficient__attr_""angle""__coeff_47"
1.0917124443852737,"PDCSAP_FLUX__fft_coefficient__attr_""angle""__coeff_48"
1.0885975629887323,"PDCSAP_FLUX__fft_coefficient__attr_""angle""__coeff_49"
1.0899738960751053,"PDCSAP_FLUX__fft_coefficient__attr_""angle""__coeff_50"
1.087309056081834,"PDCSAP_FLUX__fft_coefficient__attr_""angle""__coeff_51"
1.0851825737450296,"PDCSAP_FLUX__fft_coefficient__attr_""angle""__coeff_52"
1.08715642011701,"PDCSAP_FLUX__fft_coefficient__attr_""angle""__coeff_53"
1.0909587011603614,"PDCSAP_FLUX__fft_coefficient__attr_""angle""__coeff_54"
1.0877371109642058,"PDCSAP_FLUX__fft_coefficient__attr_""angle""__coeff_55"
1.0826098517751752,"PDCSAP_FLUX__fft_coefficient__attr_""angle""__coeff_56"
1.0850714107791788,"PDCSAP_FLUX__fft_coefficient__attr_""angle""__coeff_57"
1.0818441831608696,"PDCSAP_FLUX__fft_coefficient__attr_""angle""__coeff_58"
1.0835914440843712,"PDCSAP_FLUX__fft_coefficient__attr_""angle""__coeff_59"
1.082468597331587,"PDCSAP_FLUX__fft_coefficient__attr_""angle""__coeff_60"
1.0814435676231928,"PDCSAP_FLUX__fft_coefficient__attr_""angle""__coeff_61"
1.078876354928052,"PDCSAP_FLUX__fft_coefficient__attr_""angle""__coeff_62"
1.0791555289895802,"PDCSAP_FLUX__fft_coefficient__attr_""angle""__coeff_63"
1.078482481659386,"PDCSAP_FLUX__fft_coefficient__attr_""angle""__coeff_64"
1.0700860130972425,"PDCSAP_FLUX__fft_coefficient__attr_""angle""__coeff_65"
1.077710656298007,"PDCSAP_FLUX__fft_coefficient__attr_""angle""__coeff_66"
1.0681271855278152,"PDCSAP_FLUX__fft_coefficient__attr_""angle""__coeff_67"
1.0612695898683548,"PDCSAP_FLUX__fft_coefficient__attr_""angle""__coeff_68"
1.0628606094639352,"PDCSAP_FLUX__fft_coefficient__attr_""angle""__coeff_69"
1.0559107548719675,"PDCSAP_FLUX__fft_coefficient__attr_""angle""__coeff_70"
1.061696008799536,"PDCSAP_FLUX__fft_coefficient__attr_""angle""__coeff_71"
1.0652952487914067,"PDCSAP_FLUX__fft_coefficient__attr_""angle""__coeff_72"
1.0619820940962734,"PDCSAP_FLUX__fft_coefficient__attr_""angle""__coeff_73"
1.0619932736593738,"PDCSAP_FLUX__fft_coefficient__attr_""angle""__coeff_74"
1.0679238026301736,"PDCSAP_FLUX__fft_coefficient__attr_""angle""__coeff_75"
1.062119846704481,"PDCSAP_FLUX__fft_coefficient__attr_""angle""__coeff_76"
1.062644233695743,"PDCSAP_FLUX__fft_coefficient__attr_""angle""__coeff_77"
1.061126432933048,"PDCSAP_FLUX__fft_coefficient__attr_""angle""__coeff_78"
1.0623640996687265,"PDCSAP_FLUX__fft_coefficient__attr_""angle""__coeff_79"
1.0601618372277823,"PDCSAP_FLUX__fft_coefficient__attr_""angle""__coeff_80"
1.0606349755305362,"PDCSAP_FLUX__fft_coefficient__attr_""angle""__coeff_81"
1.0606470912234665,"PDCSAP_FLUX__fft_coefficient__attr_""angle""__coeff_82"
1.0608013158282457,"PDCSAP_FLUX__fft_coefficient__attr_""angle""__coeff_83"
1.058153586762233,"PDCSAP_FLUX__fft_coefficient__attr_""angle""__coeff_84"
1.0543283608201257,"PDCSAP_FLUX__fft_coefficient__attr_""angle""__coeff_85"
1.0560657175978807,"PDCSAP_FLUX__fft_coefficient__attr_""angle""__coeff_86"
1.0596066706458738,"PDCSAP_FLUX__fft_coefficient__attr_""angle""__coeff_87"
1.060323216437044,"PDCSAP_FLUX__fft_coefficient__attr_""angle""__coeff_88"
1.0549862731586903,"PDCSAP_FLUX__fft_coefficient__attr_""angle""__coeff_89"
1.0572585650057469,"PDCSAP_FLUX__fft_coefficient__attr_""angle""__coeff_90"
1.0543149855116527,"PDCSAP_FLUX__fft_coefficient__attr_""angle""__coeff_91"
1.0547420773500058,"PDCSAP_FLUX__fft_coefficient__attr_""angle""__coeff_92"
1.0555796508172814,"PDCSAP_FLUX__fft_coefficient__attr_""angle""__coeff_93"
1.0543222538592083,"PDCSAP_FLUX__fft_coefficient__attr_""angle""__coeff_94"
1.0543477964464312,"PDCSAP_FLUX__fft_coefficient__attr_""angle""__coeff_95"
1.056211416131324,"PDCSAP_FLUX__fft_coefficient__attr_""angle""__coeff_96"
1.0518042071520608,"PDCSAP_FLUX__fft_coefficient__attr_""angle""__coeff_97"
1.049733131608394,"PDCSAP_FLUX__fft_coefficient__attr_""angle""__coeff_98"
1.0501366354259312,"PDCSAP_FLUX__fft_coefficient__attr_""angle""__coeff_99"
20.598776109112485,"PDCSAP_FLUX__fft_aggregated__aggtype_""centroid"""
19.685444226906238,"PDCSAP_FLUX__fft_aggregated__aggtype_""variance"""
11.567144110489496,"PDCSAP_FLUX__fft_aggregated__aggtype_""skew"""
9.391521824905144,"PDCSAP_FLUX__fft_aggregated__aggtype_""kurtosis"""
3.41738145555129,PDCSAP_FLUX__range_count__max_1__min_-1
2.1394820341176444,PDCSAP_FLUX__range_count__max_0__min_-1000000000000.0
9.796261124606486,PDCSAP_FLUX__range_count__max_1000000000000.0__min_0
2.7465220237091117,PDCSAP_FLUX__friedrich_coefficients__coeff_0__m_3__r_30
1.6750626908365125,PDCSAP_FLUX__friedrich_coefficients__coeff_1__m_3__r_30
3.371623855213301,PDCSAP_FLUX__friedrich_coefficients__coeff_2__m_3__r_30
3.2045085905953368,PDCSAP_FLUX__friedrich_coefficients__coeff_3__m_3__r_30
21.788006777629647,PDCSAP_FLUX__max_langevin_fixed_point__m_3__r_30
1.1459602412325691,"PDCSAP_FLUX__linear_trend__attr_""pvalue"""
115.58729262604494,"PDCSAP_FLUX__linear_trend__attr_""rvalue"""
9579018780.864712,"PDCSAP_FLUX__linear_trend__attr_""intercept"""
36909.69708466578,"PDCSAP_FLUX__linear_trend__attr_""slope"""
12052.134237445283,"PDCSAP_FLUX__linear_trend__attr_""stderr"""
53.1952021887271,"PDCSAP_FLUX__agg_linear_trend__attr_""rvalue""__chunk_len_5__f_agg_""max"""
148.9562888438888,"PDCSAP_FLUX__agg_linear_trend__attr_""rvalue""__chunk_len_5__f_agg_""min"""
759.0419075586092,"PDCSAP_FLUX__agg_linear_trend__attr_""rvalue""__chunk_len_5__f_agg_""mean"""
9.08532461556982,"PDCSAP_FLUX__agg_linear_trend__attr_""rvalue""__chunk_len_5__f_agg_""var"""
18.81012050404361,"PDCSAP_FLUX__agg_linear_trend__attr_""rvalue""__chunk_len_10__f_agg_""max"""
74.85552442397723,"PDCSAP_FLUX__agg_linear_trend__attr_""rvalue""__chunk_len_10__f_agg_""min"""
535.3046769977367,"PDCSAP_FLUX__agg_linear_trend__attr_""rvalue""__chunk_len_10__f_agg_""mean"""
11.755069407373785,"PDCSAP_FLUX__agg_linear_trend__attr_""rvalue""__chunk_len_10__f_agg_""var"""
5.077368865876812,"PDCSAP_FLUX__agg_linear_trend__attr_""rvalue""__chunk_len_50__f_agg_""max"""
5.497667563785878,"PDCSAP_FLUX__agg_linear_trend__attr_""rvalue""__chunk_len_50__f_agg_""min"""
22.93621950855502,"PDCSAP_FLUX__agg_linear_trend__attr_""rvalue""__chunk_len_50__f_agg_""mean"""
3.8684795140422295,"PDCSAP_FLUX__agg_linear_trend__attr_""rvalue""__chunk_len_50__f_agg_""var"""
81228266.64139353,"PDCSAP_FLUX__agg_linear_trend__attr_""intercept""__chunk_len_5__f_agg_""max"""
111881687.30125344,"PDCSAP_FLUX__agg_linear_trend__attr_""intercept""__chunk_len_5__f_agg_""min"""
20653692576.440117,"PDCSAP_FLUX__agg_linear_trend__attr_""intercept""__chunk_len_5__f_agg_""mean"""
160.55824325821146,"PDCSAP_FLUX__agg_linear_trend__attr_""intercept""__chunk_len_5__f_agg_""var"""
18891382.385894395,"PDCSAP_FLUX__agg_linear_trend__attr_""intercept""__chunk_len_10__f_agg_""max"""
12658618.317178767,"PDCSAP_FLUX__agg_linear_trend__attr_""intercept""__chunk_len_10__f_agg_""min"""
12528966427.98263,"PDCSAP_FLUX__agg_linear_trend__attr_""intercept""__chunk_len_10__f_agg_""mean"""
178.09173251767197,"PDCSAP_FLUX__agg_linear_trend__attr_""intercept""__chunk_len_10__f_agg_""var"""
1318857.6778379187,"PDCSAP_FLUX__agg_linear_trend__attr_""intercept""__chunk_len_50__f_agg_""max"""
134229.54351005628,"PDCSAP_FLUX__agg_linear_trend__attr_""intercept""__chunk_len_50__f_agg_""min"""
135935970.74081808,"PDCSAP_FLUX__agg_linear_trend__attr_""intercept""__chunk_len_50__f_agg_""mean"""
44.284101887587795,"PDCSAP_FLUX__agg_linear_trend__attr_""intercept""__chunk_len_50__f_agg_""var"""
1335.0863422795635,"PDCSAP_FLUX__agg_linear_trend__attr_""slope""__chunk_len_5__f_agg_""max"""
1107.3694812998633,"PDCSAP_FLUX__agg_linear_trend__attr_""slope""__chunk_len_5__f_agg_""min"""
35368.766872802174,"PDCSAP_FLUX__agg_linear_trend__attr_""slope""__chunk_len_5__f_agg_""mean"""
33.39497163143042,"PDCSAP_FLUX__agg_linear_trend__attr_""slope""__chunk_len_5__f_agg_""var"""
244.67103587462918,"PDCSAP_FLUX__agg_linear_trend__attr_""slope""__chunk_len_10__f_agg_""max"""
144.8146403575233,"PDCSAP_FLUX__agg_linear_trend__attr_""slope""__chunk_len_10__f_agg_""min"""
21747.15823638817,"PDCSAP_FLUX__agg_linear_trend__attr_""slope""__chunk_len_10__f_agg_""mean"""
31.642246842159853,"PDCSAP_FLUX__agg_linear_trend__attr_""slope""__chunk_len_10__f_agg_""var"""
16.973236128194248,"PDCSAP_FLUX__agg_linear_trend__attr_""slope""__chunk_len_50__f_agg_""max"""
26.43192116501035,"PDCSAP_FLUX__agg_linear_trend__attr_""slope""__chunk_len_50__f_agg_""min"""
74.43940054485253,"PDCSAP_FLUX__agg_linear_trend__attr_""slope""__chunk_len_50__f_agg_""mean"""
38.83203764958864,"PDCSAP_FLUX__agg_linear_trend__attr_""slope""__chunk_len_50__f_agg_""var"""
1660.5151359096756,"PDCSAP_FLUX__agg_linear_trend__attr_""stderr""__chunk_len_5__f_agg_""max"""
20555.243671869644,"PDCSAP_FLUX__agg_linear_trend__attr_""stderr""__chunk_len_5__f_agg_""min"""
20316.947991563888,"PDCSAP_FLUX__agg_linear_trend__attr_""stderr""__chunk_len_5__f_agg_""mean"""
697.4883420772794,"PDCSAP_FLUX__agg_linear_trend__attr_""stderr""__chunk_len_5__f_agg_""var"""
123.76028099683136,"PDCSAP_FLUX__agg_linear_trend__attr_""stderr""__chunk_len_10__f_agg_""max"""
7716.613254039555,"PDCSAP_FLUX__agg_linear_trend__attr_""stderr""__chunk_len_10__f_agg_""min"""
6338.594378898723,"PDCSAP_FLUX__agg_linear_trend__attr_""stderr""__chunk_len_10__f_agg_""mean"""
667.8699417383411,"PDCSAP_FLUX__agg_linear_trend__attr_""stderr""__chunk_len_10__f_agg_""var"""
6.992294341197468,"PDCSAP_FLUX__agg_linear_trend__attr_""stderr""__chunk_len_50__f_agg_""max"""
156.7682512272435,"PDCSAP_FLUX__agg_linear_trend__attr_""stderr""__chunk_len_50__f_agg_""min"""
122.49972919821577,"PDCSAP_FLUX__agg_linear_trend__attr_""stderr""__chunk_len_50__f_agg_""mean"""
72.31503852813111,"PDCSAP_FLUX__agg_linear_trend__attr_""stderr""__chunk_len_50__f_agg_""var"""
2.133264021725352,"PDCSAP_FLUX__augmented_dickey_fuller__attr_""teststat""__autolag_""AIC"""
1.2922332310708973,"PDCSAP_FLUX__augmented_dickey_fuller__attr_""pvalue""__autolag_""AIC"""
4.085964973889586,"PDCSAP_FLUX__augmented_dickey_fuller__attr_""usedlag""__autolag_""AIC"""
8884.446991977878,PDCSAP_FLUX__number_crossing_m__m_0
3281.675570161487,PDCSAP_FLUX__number_crossing_m__m_-1
3155.369070926056,PDCSAP_FLUX__number_crossing_m__m_1
1.3666769345575591,PDCSAP_FLUX__energy_ratio_by_chunks__num_segments_10__segment_focus_0
1.4708847259154827,PDCSAP_FLUX__energy_ratio_by_chunks__num_segments_10__segment_focus_1
1.5417713869452176,PDCSAP_FLUX__energy_ratio_by_chunks__num_segments_10__segment_focus_2
1.0947362350424092,PDCSAP_FLUX__energy_ratio_by_chunks__num_segments_10__segment_focus_3
1.0059417391669774,PDCSAP_FLUX__energy_ratio_by_chunks__num_segments_10__segment_focus_4
1.0722409686020349,PDCSAP_FLUX__energy_ratio_by_chunks__num_segments_10__segment_focus_5
1.1033414140744573,PDCSAP_FLUX__energy_ratio_by_chunks__num_segments_10__segment_focus_6
1.2968675470975926,PDCSAP_FLUX__energy_ratio_by_chunks__num_segments_10__segment_focus_7
1.3976584189906105,PDCSAP_FLUX__energy_ratio_by_chunks__num_segments_10__segment_focus_8
1.334049322053448,PDCSAP_FLUX__energy_ratio_by_chunks__num_segments_10__segment_focus_9
13.228761151973734,PDCSAP_FLUX__ratio_beyond_r_sigma__r_0.5
17.805499182109262,PDCSAP_FLUX__ratio_beyond_r_sigma__r_1
10.154197691557917,PDCSAP_FLUX__ratio_beyond_r_sigma__r_1.5
6.456914041861019,PDCSAP_FLUX__ratio_beyond_r_sigma__r_2
13.19529376086557,PDCSAP_FLUX__ratio_beyond_r_sigma__r_2.5
9.32803123822141,PDCSAP_FLUX__ratio_beyond_r_sigma__r_3
3.496121270578326,PDCSAP_FLUX__ratio_beyond_r_sigma__r_5
4.460105937207218,PDCSAP_FLUX__ratio_beyond_r_sigma__r_6
3.055277206724196,PDCSAP_FLUX__ratio_beyond_r_sigma__r_7
2.1280410855945378,PDCSAP_FLUX__ratio_beyond_r_sigma__r_10
7.5340772880960465,PDCSAP_FLUX__count_above__t_0
2.68802812869569,PDCSAP_FLUX__count_below__t_0
2.6025029067163845,PDCSAP_FLUX__lempel_ziv_complexity__bins_2
3.5288122313018464,PDCSAP_FLUX__lempel_ziv_complexity__bins_3
7.0288878452965315,PDCSAP_FLUX__lempel_ziv_complexity__bins_5
17.828127552006574,PDCSAP_FLUX__lempel_ziv_complexity__bins_10
17.36336219818536,PDCSAP_FLUX__lempel_ziv_complexity__bins_100
3.2003457233893413,PDCSAP_FLUX__fourier_entropy__bins_2
6.413609101622428,PDCSAP_FLUX__fourier_entropy__bins_3
18.058321566850733,PDCSAP_FLUX__fourier_entropy__bins_5
29.95859323841503,PDCSAP_FLUX__fourier_entropy__bins_10
9.136072012249835,PDCSAP_FLUX__fourier_entropy__bins_100
326.1288419711621,PDCSAP_FLUX__permutation_entropy__dimension_3__tau_1
2680.186847252643,PDCSAP_FLUX__permutation_entropy__dimension_4__tau_1
4066.314265858492,PDCSAP_FLUX__permutation_entropy__dimension_5__tau_1
2036.6452737116629,PDCSAP_FLUX__permutation_entropy__dimension_6__tau_1
251.9195993415128,PDCSAP_FLUX__permutation_entropy__dimension_7__tau_1
34545.835786474905,PDCSAP_FLUX__mean_n_absolute_max__number_of_maxima_7
