VIF Factor,Features
1.0004316003207223,PDCSAP_FLUX__has_duplicate_max
1.0036712488479194,PDCSAP_FLUX__has_duplicate_min
0.0027657818467719934,PDCSAP_FLUX__has_duplicate
51.62667017488528,PDCSAP_FLUX__sum_values
14.006825373420044,PDCSAP_FLUX__abs_energy
26.57041938840971,PDCSAP_FLUX__mean_abs_change
1.4334779369003976,PDCSAP_FLUX__mean_change
1.1540197470890345,PDCSAP_FLUX__mean_second_derivative_central
7057.702639836798,PDCSAP_FLUX__median
7037.034216388691,PDCSAP_FLUX__mean
0.9930384888762914,PDCSAP_FLUX__length
16.377769607879117,PDCSAP_FLUX__standard_deviation
1.0376141637944762,PDCSAP_FLUX__variation_coefficient
5.371100566630157,PDCSAP_FLUX__variance
0.9819409614136051,PDCSAP_FLUX__skewness
0.988709971951945,PDCSAP_FLUX__kurtosis
7051.911145128129,PDCSAP_FLUX__root_mean_square
7.660727106071882,PDCSAP_FLUX__absolute_sum_of_changes
1.0374525978480418,PDCSAP_FLUX__longest_strike_below_mean
1.0324506268889484,PDCSAP_FLUX__longest_strike_above_mean
1.0327857487718604,PDCSAP_FLUX__count_above_mean
0.9589786934360618,PDCSAP_FLUX__count_below_mean
0.2877261108732769,PDCSAP_FLUX__last_location_of_maximum
0.2879682850599509,PDCSAP_FLUX__first_location_of_maximum
0.29572284969632745,PDCSAP_FLUX__last_location_of_minimum
0.29598797544774375,PDCSAP_FLUX__first_location_of_minimum
0.7274828626730662,PDCSAP_FLUX__percentage_of_reoccurring_values_to_all_values
0.5808791222336097,PDCSAP_FLUX__percentage_of_reoccurring_datapoints_to_all_datapoints
12.388276198050377,PDCSAP_FLUX__sum_of_reoccurring_values
10.3251337920445,PDCSAP_FLUX__sum_of_reoccurring_data_points
0.032301683676527825,PDCSAP_FLUX__ratio_value_number_to_time_series_length
4919.010143947023,PDCSAP_FLUX__maximum
4923.043643317341,PDCSAP_FLUX__absolute_maximum
670.9843572887082,PDCSAP_FLUX__minimum
0.7869644660056987,PDCSAP_FLUX__benford_correlation
68.17359520322573,PDCSAP_FLUX__time_reversal_asymmetry_statistic__lag_1
241.54247839182221,PDCSAP_FLUX__time_reversal_asymmetry_statistic__lag_2
96.28410567745948,PDCSAP_FLUX__time_reversal_asymmetry_statistic__lag_3
30152446939.766712,PDCSAP_FLUX__c3__lag_1
111899014271.13812,PDCSAP_FLUX__c3__lag_2
29632259051.14714,PDCSAP_FLUX__c3__lag_3
0.5861495049206589,PDCSAP_FLUX__cid_ce__normalize_True
20.362723131198628,PDCSAP_FLUX__cid_ce__normalize_False
0.047058789369640176,PDCSAP_FLUX__symmetry_looking__r_0.05
0.00409844959090559,PDCSAP_FLUX__symmetry_looking__r_0.1
0.00037575848444074914,PDCSAP_FLUX__symmetry_looking__r_0.15000000000000002
3.006443255919974e-05,PDCSAP_FLUX__symmetry_looking__r_0.2
0.32454677982733665,PDCSAP_FLUX__large_standard_deviation__r_0.05
0.6659031214648189,PDCSAP_FLUX__large_standard_deviation__r_0.1
0.8476749981292346,PDCSAP_FLUX__large_standard_deviation__r_0.15000000000000002
0.933856627505893,PDCSAP_FLUX__large_standard_deviation__r_0.2
0.9850964195773289,PDCSAP_FLUX__large_standard_deviation__r_0.25
0.9997680940461607,PDCSAP_FLUX__large_standard_deviation__r_0.30000000000000004
1.000604242977105,PDCSAP_FLUX__large_standard_deviation__r_0.35000000000000003
5787.797014436286,PDCSAP_FLUX__quantile__q_0.1
6709.236645728014,PDCSAP_FLUX__quantile__q_0.2
6904.9005260037775,PDCSAP_FLUX__quantile__q_0.3
7004.186807228493,PDCSAP_FLUX__quantile__q_0.4
7129.787810524439,PDCSAP_FLUX__quantile__q_0.6
6956.011127890621,PDCSAP_FLUX__quantile__q_0.7
6801.851458459066,PDCSAP_FLUX__quantile__q_0.8
6586.174040721964,PDCSAP_FLUX__quantile__q_0.9
0.35875543249083125,PDCSAP_FLUX__autocorrelation__lag_1
0.37647973416569525,PDCSAP_FLUX__autocorrelation__lag_2
0.40080104932703653,PDCSAP_FLUX__autocorrelation__lag_3
0.43047402143435604,PDCSAP_FLUX__autocorrelation__lag_4
0.46076460255346563,PDCSAP_FLUX__autocorrelation__lag_5
0.486162395915849,PDCSAP_FLUX__autocorrelation__lag_6
0.5042625883246428,PDCSAP_FLUX__autocorrelation__lag_7
0.520691148645149,PDCSAP_FLUX__autocorrelation__lag_8
0.5326488710936259,PDCSAP_FLUX__autocorrelation__lag_9
0.544680595116287,"PDCSAP_FLUX__agg_autocorrelation__f_agg_""mean""__maxlag_40"
0.5935585345852736,"PDCSAP_FLUX__agg_autocorrelation__f_agg_""median""__maxlag_40"
0.9046645344950147,"PDCSAP_FLUX__agg_autocorrelation__f_agg_""var""__maxlag_40"
0.3587492459394577,PDCSAP_FLUX__partial_autocorrelation__lag_1
0.9971338342256891,PDCSAP_FLUX__partial_autocorrelation__lag_2
0.9444690826175344,PDCSAP_FLUX__partial_autocorrelation__lag_3
1.01060454323728,PDCSAP_FLUX__partial_autocorrelation__lag_4
1.0004114424758936,PDCSAP_FLUX__partial_autocorrelation__lag_5
0.999746641948746,PDCSAP_FLUX__partial_autocorrelation__lag_6
1.000359379563175,PDCSAP_FLUX__partial_autocorrelation__lag_7
1.0001754778052734,PDCSAP_FLUX__partial_autocorrelation__lag_8
1.000067787219193,PDCSAP_FLUX__partial_autocorrelation__lag_9
1.0480868712316256,PDCSAP_FLUX__number_cwt_peaks__n_1
1.0286462094337756,PDCSAP_FLUX__number_cwt_peaks__n_5
0.9938489026397768,PDCSAP_FLUX__number_peaks__n_1
0.9995516033437957,PDCSAP_FLUX__number_peaks__n_3
1.002818362203696,PDCSAP_FLUX__number_peaks__n_5
1.0071495381555382,PDCSAP_FLUX__number_peaks__n_10
1.0266797191881407,PDCSAP_FLUX__number_peaks__n_50
0.2645604862745192,PDCSAP_FLUX__binned_entropy__max_bins_10
0.00012363200798856487,PDCSAP_FLUX__index_mass_quantile__q_0.1
4.88943659564092e-05,PDCSAP_FLUX__index_mass_quantile__q_0.2
2.484838713125547e-05,PDCSAP_FLUX__index_mass_quantile__q_0.3
1.3969029898936911e-05,PDCSAP_FLUX__index_mass_quantile__q_0.4
4.880804923484683e-06,PDCSAP_FLUX__index_mass_quantile__q_0.6
2.7559126553020333e-06,PDCSAP_FLUX__index_mass_quantile__q_0.7
1.4272692821882e-06,PDCSAP_FLUX__index_mass_quantile__q_0.8
5.43064681088277e-07,PDCSAP_FLUX__index_mass_quantile__q_0.9
1.322528444135922,"PDCSAP_FLUX__cwt_coefficients__coeff_0__w_2__widths_(2, 5, 10, 20)"
1.550966008659343,"PDCSAP_FLUX__cwt_coefficients__coeff_0__w_5__widths_(2, 5, 10, 20)"
1.5854524240862173,"PDCSAP_FLUX__cwt_coefficients__coeff_0__w_10__widths_(2, 5, 10, 20)"
1.5561928838071986,"PDCSAP_FLUX__cwt_coefficients__coeff_0__w_20__widths_(2, 5, 10, 20)"
2374.670396577099,"PDCSAP_FLUX__cwt_coefficients__coeff_1__w_2__widths_(2, 5, 10, 20)"
666.8886681099792,"PDCSAP_FLUX__cwt_coefficients__coeff_1__w_5__widths_(2, 5, 10, 20)"
295.972303361429,"PDCSAP_FLUX__cwt_coefficients__coeff_1__w_10__widths_(2, 5, 10, 20)"
122.99848945308716,"PDCSAP_FLUX__cwt_coefficients__coeff_1__w_20__widths_(2, 5, 10, 20)"
4681.833297567955,"PDCSAP_FLUX__cwt_coefficients__coeff_2__w_2__widths_(2, 5, 10, 20)"
1784.0678303942257,"PDCSAP_FLUX__cwt_coefficients__coeff_2__w_5__widths_(2, 5, 10, 20)"
1180.2572379536803,"PDCSAP_FLUX__cwt_coefficients__coeff_2__w_10__widths_(2, 5, 10, 20)"
542.3403558484222,"PDCSAP_FLUX__cwt_coefficients__coeff_2__w_20__widths_(2, 5, 10, 20)"
4026.5255105247497,"PDCSAP_FLUX__cwt_coefficients__coeff_3__w_2__widths_(2, 5, 10, 20)"
2861.720641201859,"PDCSAP_FLUX__cwt_coefficients__coeff_3__w_5__widths_(2, 5, 10, 20)"
2706.633647843404,"PDCSAP_FLUX__cwt_coefficients__coeff_3__w_10__widths_(2, 5, 10, 20)"
1361.6994778375927,"PDCSAP_FLUX__cwt_coefficients__coeff_3__w_20__widths_(2, 5, 10, 20)"
1163.6066666884365,"PDCSAP_FLUX__cwt_coefficients__coeff_4__w_2__widths_(2, 5, 10, 20)"
3864.983651486038,"PDCSAP_FLUX__cwt_coefficients__coeff_4__w_5__widths_(2, 5, 10, 20)"
4999.395917985807,"PDCSAP_FLUX__cwt_coefficients__coeff_4__w_10__widths_(2, 5, 10, 20)"
2689.0311909789116,"PDCSAP_FLUX__cwt_coefficients__coeff_4__w_20__widths_(2, 5, 10, 20)"
241.844955058712,"PDCSAP_FLUX__cwt_coefficients__coeff_5__w_2__widths_(2, 5, 10, 20)"
4916.070824672801,"PDCSAP_FLUX__cwt_coefficients__coeff_5__w_5__widths_(2, 5, 10, 20)"
8366.105408972784,"PDCSAP_FLUX__cwt_coefficients__coeff_5__w_10__widths_(2, 5, 10, 20)"
4565.792974667311,"PDCSAP_FLUX__cwt_coefficients__coeff_5__w_20__widths_(2, 5, 10, 20)"
44.14819291832469,"PDCSAP_FLUX__cwt_coefficients__coeff_6__w_2__widths_(2, 5, 10, 20)"
6087.607316371018,"PDCSAP_FLUX__cwt_coefficients__coeff_6__w_5__widths_(2, 5, 10, 20)"
12652.326284194103,"PDCSAP_FLUX__cwt_coefficients__coeff_6__w_10__widths_(2, 5, 10, 20)"
6971.132497090347,"PDCSAP_FLUX__cwt_coefficients__coeff_6__w_20__widths_(2, 5, 10, 20)"
4.497843487911222,"PDCSAP_FLUX__cwt_coefficients__coeff_7__w_2__widths_(2, 5, 10, 20)"
7208.613470130635,"PDCSAP_FLUX__cwt_coefficients__coeff_7__w_5__widths_(2, 5, 10, 20)"
18356.708887967656,"PDCSAP_FLUX__cwt_coefficients__coeff_7__w_10__widths_(2, 5, 10, 20)"
9763.27295650478,"PDCSAP_FLUX__cwt_coefficients__coeff_7__w_20__widths_(2, 5, 10, 20)"
1.6566706777489466,"PDCSAP_FLUX__cwt_coefficients__coeff_8__w_2__widths_(2, 5, 10, 20)"
7396.756630087901,"PDCSAP_FLUX__cwt_coefficients__coeff_8__w_5__widths_(2, 5, 10, 20)"
23245.038778785252,"PDCSAP_FLUX__cwt_coefficients__coeff_8__w_10__widths_(2, 5, 10, 20)"
12051.854998934043,"PDCSAP_FLUX__cwt_coefficients__coeff_8__w_20__widths_(2, 5, 10, 20)"
1.4245334013233089,"PDCSAP_FLUX__cwt_coefficients__coeff_9__w_2__widths_(2, 5, 10, 20)"
5021.508952379591,"PDCSAP_FLUX__cwt_coefficients__coeff_9__w_5__widths_(2, 5, 10, 20)"
24008.410453462595,"PDCSAP_FLUX__cwt_coefficients__coeff_9__w_10__widths_(2, 5, 10, 20)"
13738.833742741834,"PDCSAP_FLUX__cwt_coefficients__coeff_9__w_20__widths_(2, 5, 10, 20)"
1.2217849175299982,"PDCSAP_FLUX__cwt_coefficients__coeff_10__w_2__widths_(2, 5, 10, 20)"
2163.3738511705205,"PDCSAP_FLUX__cwt_coefficients__coeff_10__w_5__widths_(2, 5, 10, 20)"
22384.083190483514,"PDCSAP_FLUX__cwt_coefficients__coeff_10__w_10__widths_(2, 5, 10, 20)"
14770.878073753242,"PDCSAP_FLUX__cwt_coefficients__coeff_10__w_20__widths_(2, 5, 10, 20)"
1.0799039977073115,"PDCSAP_FLUX__cwt_coefficients__coeff_11__w_2__widths_(2, 5, 10, 20)"
769.225874851412,"PDCSAP_FLUX__cwt_coefficients__coeff_11__w_5__widths_(2, 5, 10, 20)"
17235.585388170115,"PDCSAP_FLUX__cwt_coefficients__coeff_11__w_10__widths_(2, 5, 10, 20)"
14184.756433873774,"PDCSAP_FLUX__cwt_coefficients__coeff_11__w_20__widths_(2, 5, 10, 20)"
1.0251031444028187,"PDCSAP_FLUX__cwt_coefficients__coeff_12__w_2__widths_(2, 5, 10, 20)"
266.2485969363795,"PDCSAP_FLUX__cwt_coefficients__coeff_12__w_5__widths_(2, 5, 10, 20)"
12911.190807099454,"PDCSAP_FLUX__cwt_coefficients__coeff_12__w_10__widths_(2, 5, 10, 20)"
10363.78554298343,"PDCSAP_FLUX__cwt_coefficients__coeff_12__w_20__widths_(2, 5, 10, 20)"
1.0977677099237368,"PDCSAP_FLUX__cwt_coefficients__coeff_13__w_2__widths_(2, 5, 10, 20)"
93.71411034884396,"PDCSAP_FLUX__cwt_coefficients__coeff_13__w_5__widths_(2, 5, 10, 20)"
9396.323696828385,"PDCSAP_FLUX__cwt_coefficients__coeff_13__w_10__widths_(2, 5, 10, 20)"
12236.707057961668,"PDCSAP_FLUX__cwt_coefficients__coeff_13__w_20__widths_(2, 5, 10, 20)"
1.1464835586356055,"PDCSAP_FLUX__cwt_coefficients__coeff_14__w_2__widths_(2, 5, 10, 20)"
34.069653538732176,"PDCSAP_FLUX__cwt_coefficients__coeff_14__w_5__widths_(2, 5, 10, 20)"
6891.39644476293,"PDCSAP_FLUX__cwt_coefficients__coeff_14__w_10__widths_(2, 5, 10, 20)"
11012.691699816081,"PDCSAP_FLUX__cwt_coefficients__coeff_14__w_20__widths_(2, 5, 10, 20)"
6.987226481581199,PDCSAP_FLUX__spkt_welch_density__coeff_2
51.8543638917493,PDCSAP_FLUX__spkt_welch_density__coeff_5
9.947333913752598,PDCSAP_FLUX__spkt_welch_density__coeff_8
1.918999307594884,PDCSAP_FLUX__ar_coefficient__coeff_0__k_10
0.7206041377010487,PDCSAP_FLUX__ar_coefficient__coeff_1__k_10
1.0467086222582582,PDCSAP_FLUX__ar_coefficient__coeff_2__k_10
0.8789592989112867,PDCSAP_FLUX__ar_coefficient__coeff_3__k_10
0.89470855811372,PDCSAP_FLUX__ar_coefficient__coeff_4__k_10
0.8612156041298668,PDCSAP_FLUX__ar_coefficient__coeff_5__k_10
0.8987833096248293,PDCSAP_FLUX__ar_coefficient__coeff_6__k_10
0.8952302541985104,PDCSAP_FLUX__ar_coefficient__coeff_7__k_10
0.9076494334473592,PDCSAP_FLUX__ar_coefficient__coeff_8__k_10
0.8934739561922012,PDCSAP_FLUX__ar_coefficient__coeff_9__k_10
0.892863199181713,PDCSAP_FLUX__ar_coefficient__coeff_10__k_10
1.1295960650286352,"PDCSAP_FLUX__change_quantiles__f_agg_""mean""__isabs_False__qh_0.2__ql_0.0"
2113.475518376768,"PDCSAP_FLUX__change_quantiles__f_agg_""var""__isabs_False__qh_0.2__ql_0.0"
28.49620482752724,"PDCSAP_FLUX__change_quantiles__f_agg_""mean""__isabs_True__qh_0.2__ql_0.0"
1829.6050124549224,"PDCSAP_FLUX__change_quantiles__f_agg_""var""__isabs_True__qh_0.2__ql_0.0"
1.1268617764548907,"PDCSAP_FLUX__change_quantiles__f_agg_""mean""__isabs_False__qh_0.4__ql_0.0"
31637.225265075966,"PDCSAP_FLUX__change_quantiles__f_agg_""var""__isabs_False__qh_0.4__ql_0.0"
27.696495291640986,"PDCSAP_FLUX__change_quantiles__f_agg_""mean""__isabs_True__qh_0.4__ql_0.0"
26018.024776104954,"PDCSAP_FLUX__change_quantiles__f_agg_""var""__isabs_True__qh_0.4__ql_0.0"
1.1929009704679396,"PDCSAP_FLUX__change_quantiles__f_agg_""mean""__isabs_False__qh_0.6__ql_0.0"
127032.82238060684,"PDCSAP_FLUX__change_quantiles__f_agg_""var""__isabs_False__qh_0.6__ql_0.0"
28.354421117294308,"PDCSAP_FLUX__change_quantiles__f_agg_""mean""__isabs_True__qh_0.6__ql_0.0"
137986.57365086037,"PDCSAP_FLUX__change_quantiles__f_agg_""var""__isabs_True__qh_0.6__ql_0.0"
1.2310559596454576,"PDCSAP_FLUX__change_quantiles__f_agg_""mean""__isabs_False__qh_0.8__ql_0.0"
155652.64338621398,"PDCSAP_FLUX__change_quantiles__f_agg_""var""__isabs_False__qh_0.8__ql_0.0"
28.16839144750895,"PDCSAP_FLUX__change_quantiles__f_agg_""mean""__isabs_True__qh_0.8__ql_0.0"
180473.11958625578,"PDCSAP_FLUX__change_quantiles__f_agg_""var""__isabs_True__qh_0.8__ql_0.0"
1.4334963425628438,"PDCSAP_FLUX__change_quantiles__f_agg_""mean""__isabs_False__qh_1.0__ql_0.0"
26876.73422820534,"PDCSAP_FLUX__change_quantiles__f_agg_""var""__isabs_False__qh_1.0__ql_0.0"
26.499622637302533,"PDCSAP_FLUX__change_quantiles__f_agg_""mean""__isabs_True__qh_1.0__ql_0.0"
21378.904851455885,"PDCSAP_FLUX__change_quantiles__f_agg_""var""__isabs_True__qh_1.0__ql_0.0"
1.1208600288042252,"PDCSAP_FLUX__change_quantiles__f_agg_""mean""__isabs_False__qh_0.4__ql_0.2"
27.15866801590958,"PDCSAP_FLUX__change_quantiles__f_agg_""var""__isabs_False__qh_0.4__ql_0.2"
15.698682141064516,"PDCSAP_FLUX__change_quantiles__f_agg_""mean""__isabs_True__qh_0.4__ql_0.2"
32.04925951393763,"PDCSAP_FLUX__change_quantiles__f_agg_""var""__isabs_True__qh_0.4__ql_0.2"
1.2929299752153716,"PDCSAP_FLUX__change_quantiles__f_agg_""mean""__isabs_False__qh_0.6__ql_0.2"
18.13701956406005,"PDCSAP_FLUX__change_quantiles__f_agg_""var""__isabs_False__qh_0.6__ql_0.2"
18.685205205064925,"PDCSAP_FLUX__change_quantiles__f_agg_""mean""__isabs_True__qh_0.6__ql_0.2"
